{
  "nodes": [{"sortBy": "Location", "id": "Alergolog\u00eda", "val": "342", "jerarquia": "0", "segmento": "2"}, {"sortBy": "Location", "id": "medigraphic", "val": 10, "jerarquia": "0", "segmento": "1"}, {"sortBy": "Location", "id": "Alergia, Asma e Inmunolog\u00eda Pedi\u00e1tricas", "val": 342, "jerarquia": "0", "segmento": "3"}, {"sortBy": "Location", "id": "Anestesiolog\u00eda", "val": "3567", "jerarquia": "1", "segmento": "2"}, {"sortBy": "Location", "id": "Revista Cubana de Anestesiolog\u00eda y Reanimaci\u00f3n", "val": 254, "jerarquia": "1", "segmento": "3"}, {"sortBy": "Location", "id": "Revista Mexicana de Anestesiolog\u00eda", "val": 3313, "jerarquia": "1", "segmento": "3"}, {"sortBy": "Location", "id": "Angiolog\u00eda", "val": "557", "jerarquia": "2", "segmento": "2"}, {"sortBy": "Location", "id": "Revista Cubana de Angiolog\u00eda y Cirug\u00eda Vascular", "val": 208, "jerarquia": "2", "segmento": "3"}, {"sortBy": "Location", "id": "Revista Mexicana de Angiolog\u00eda", "val": 349, "jerarquia": "2", "segmento": "3"}, {"sortBy": "Location", "id": "Arbitraje M\u00e9dico", "val": "972", "jerarquia": "3", "segmento": "2"}, {"sortBy": "Location", "id": "Revista CONAMED", "val": 972, "jerarquia": "3", "segmento": "3"}, {"sortBy": "Location", "id": "Audiolog\u00eda", "val": "88", "jerarquia": "4", "segmento": "2"}, {"sortBy": "Location", "id": "Revista Mexicana de Comunicaci\u00f3n, Audiolog\u00eda, Otoneurolog\u00eda y Foniatr\u00eda", "val": 88, "jerarquia": "4", "segmento": "3"}, {"sortBy": "Location", "id": "Bioqu\u00edmica", "val": "969", "jerarquia": "5", "segmento": "2"}, {"sortBy": "Location", "id": "Bioquimia", "val": 427, "jerarquia": "5", "segmento": "3"}, {"sortBy": "Location", "id": "Revista de Educaci\u00f3n Bioqu\u00edmica", "val": 301, "jerarquia": "5", "segmento": "3"}, {"sortBy": "Location", "id": "TIP Revista Especializada en Ciencias Qu\u00edmico-Biol\u00f3gicas", "val": 241, "jerarquia": "5", "segmento": "3"}, {"sortBy": "Location", "id": "Biotecnolog\u00eda", "val": "238", "jerarquia": "6", "segmento": "2"}, {"sortBy": "Location", "id": "Biotecnolog\u00eda Aplicada", "val": 238, "jerarquia": "6", "segmento": "3"}, {"sortBy": "Location", "id": "Cardiolog\u00eda", "val": "2597", "jerarquia": "7", "segmento": "2"}, {"sortBy": "Location", "id": "Archivos de Cardiolog\u00eda de M\u00e9xico", "val": 884, "jerarquia": "7", "segmento": "3"}, {"sortBy": "Location", "id": "Cardiovascular and Metabolic Science ", "val": 63, "jerarquia": "7", "segmento": "3"}, {"sortBy": "Location", "id": "CIU Cardiac Image Updated", "val": 18, "jerarquia": "7", "segmento": "3"}, {"sortBy": "Location", "id": "CorSalud (Revista de Enfermedades Cardiovasculares)", "val": 498, "jerarquia": "7", "segmento": "3"}, {"sortBy": "Location", "id": "Revista Cubana de Cardiolog\u00eda y Cirug\u00eda Cardiovascular", "val": 297, "jerarquia": "7", "segmento": "3"}, {"sortBy": "Location", "id": "Revista Mexicana de Cardiolog\u00eda", "val": 510, "jerarquia": "7", "segmento": "3"}, {"sortBy": "Location", "id": "Revista Mexicana de Enfermer\u00eda Cardiol\u00f3gica", "val": 327, "jerarquia": "7", "segmento": "3"}, {"sortBy": "Location", "id": "Ciencias de la Salud", "val": "1315", "jerarquia": "8", "segmento": "2"}, {"sortBy": "Location", "id": "16 de abril", "val": 296, "jerarquia": "8", "segmento": "3"}, {"sortBy": "Location", "id": "CuidArte", "val": 74, "jerarquia": "8", "segmento": "3"}, {"sortBy": "Location", "id": "EduMeCentro", "val": 643, "jerarquia": "8", "segmento": "3"}, {"sortBy": "Location", "id": "Universidad M\u00e9dica Pinare\u00f1a", "val": 195, "jerarquia": "8", "segmento": "3"}, {"sortBy": "Location", "id": "Vertientes Revista Especializada en Ciencias de la Salud", "val": 107, "jerarquia": "8", "segmento": "3"}, {"sortBy": "Location", "id": "Ciencias M\u00e9dicas", "val": "618", "jerarquia": "9", "segmento": "2"}, {"sortBy": "Location", "id": "Acta M\u00e9dica de Cuba", "val": 183, "jerarquia": "9", "segmento": "3"}, {"sortBy": "Location", "id": "Revista Informaci\u00f3n Cient\u00edfica", "val": 435, "jerarquia": "9", "segmento": "3"}, {"sortBy": "Location", "id": "Cirug\u00eda", "val": "6750", "jerarquia": "10", "segmento": "2"}, {"sortBy": "Location", "id": "Cirug\u00eda Pl\u00e1stica", "val": 513, "jerarquia": "10", "segmento": "3"}, {"sortBy": "Location", "id": "Cirug\u00eda y Cirujanos", "val": 1502, "jerarquia": "10", "segmento": "3"}, {"sortBy": "Location", "id": "Cirujano General", "val": 1172, "jerarquia": "10", "segmento": "3"}, {"sortBy": "Location", "id": "Columna", "val": 20, "jerarquia": "10", "segmento": "3"}, {"sortBy": "Location", "id": "NCT Neumolog\u00eda y Cirug\u00eda de T\u00f3rax", "val": 724, "jerarquia": "10", "segmento": "3"}, {"sortBy": "Location", "id": "Neurolog\u00eda, Neurocirug\u00eda y Psiquiatr\u00eda", "val": 245, "jerarquia": "10", "segmento": "3"}, {"sortBy": "Location", "id": "Revista Cubana de Cirug\u00eda", "val": 423, "jerarquia": "10", "segmento": "3"}, {"sortBy": "Location", "id": "Revista de Especialidades M\u00e9dico-Quir\u00fargicas", "val": 532, "jerarquia": "10", "segmento": "3"}, {"sortBy": "Location", "id": "Revista Latinoamericana de Cirug\u00eda", "val": 65, "jerarquia": "10", "segmento": "3"}, {"sortBy": "Location", "id": "Revista Mexicana de Cirug\u00eda Bucal y Maxilofacial", "val": 256, "jerarquia": "10", "segmento": "3"}, {"sortBy": "Location", "id": "Revista Mexicana de Cirug\u00eda Endosc\u00f3pica", "val": 559, "jerarquia": "10", "segmento": "3"}, {"sortBy": "Location", "id": "Revista Mexicana de Cirug\u00eda Pedi\u00e1trica", "val": 200, "jerarquia": "10", "segmento": "3"}, {"sortBy": "Location", "id": "Revista Mexicana de Cirug\u00eda Tor\u00e1cica General", "val": 6, "jerarquia": "10", "segmento": "3"}, {"sortBy": "Location", "id": "Revista Mexicana de Coloproctolog\u00eda  Enfermedades del Ano, Recto y Colon", "val": 99, "jerarquia": "10", "segmento": "3"}, {"sortBy": "Location", "id": "Revista Mexicana de Trasplantes", "val": 226, "jerarquia": "10", "segmento": "3"}, {"sortBy": "Location", "id": "Cirug\u00eda Bucal", "val": "256", "jerarquia": "11", "segmento": "2"}, {"sortBy": "Location", "id": "Cirug\u00eda Endosc\u00f3pica", "val": "559", "jerarquia": "12", "segmento": "2"}, {"sortBy": "Location", "id": "Cirug\u00eda Pl\u00e1stica", "val": "513", "jerarquia": "13", "segmento": "2"}, {"sortBy": "Location", "id": "Dermatolog\u00eda", "val": "3843", "jerarquia": "14", "segmento": "2"}, {"sortBy": "Location", "id": "Dermatolog\u00eda Cosm\u00e9tica, M\u00e9dica y Quir\u00fargica", "val": 973, "jerarquia": "14", "segmento": "3"}, {"sortBy": "Location", "id": "Dermatolog\u00eda Revista Mexicana", "val": 1240, "jerarquia": "14", "segmento": "3"}, {"sortBy": "Location", "id": "Folia Dermatol\u00f3gica Cubana", "val": 33, "jerarquia": "14", "segmento": "3"}, {"sortBy": "Location", "id": "Medicina Cut\u00e1nea Ibero-Latino-Americana", "val": 948, "jerarquia": "14", "segmento": "3"}, {"sortBy": "Location", "id": "Revista del Centro Dermatol\u00f3gico Pascua", "val": 649, "jerarquia": "14", "segmento": "3"}, {"sortBy": "Location", "id": "Direcci\u00f3n en Salud", "val": "307", "jerarquia": "15", "segmento": "2"}, {"sortBy": "Location", "id": "Infodir (Revista de Informaci\u00f3n para la Direcci\u00f3n en Salud)", "val": 307, "jerarquia": "15", "segmento": "3"}, {"sortBy": "Location", "id": "Educaci\u00f3n M\u00e9dica", "val": "887", "jerarquia": "16", "segmento": "2"}, {"sortBy": "Location", "id": "Investigaci\u00f3n en Educaci\u00f3n M\u00e9dica", "val": 163, "jerarquia": "16", "segmento": "3"}, {"sortBy": "Location", "id": "Revista Cubana de Educaci\u00f3n M\u00e9dica Superior", "val": 724, "jerarquia": "16", "segmento": "3"}, {"sortBy": "Location", "id": "Embriolog\u00eda", "val": "151", "jerarquia": "17", "segmento": "2"}, {"sortBy": "Location", "id": "Revista Mexicana de Medicina de la Reproducci\u00f3n", "val": 151, "jerarquia": "17", "segmento": "3"}, {"sortBy": "Location", "id": "Endocrinolog\u00eda", "val": "711", "jerarquia": "18", "segmento": "2"}, {"sortBy": "Location", "id": "Revista Cubana de Endocrinolog\u00eda", "val": 248, "jerarquia": "18", "segmento": "3"}, {"sortBy": "Location", "id": "Revista de Endocrinolog\u00eda y Nutrici\u00f3n", "val": 463, "jerarquia": "18", "segmento": "3"}, {"sortBy": "Location", "id": "Endocrinolog\u00eda y Nutrici\u00f3n", "val": "77", "jerarquia": "19", "segmento": "2"}, {"sortBy": "Location", "id": "Revista Mexicana de Trastornos Alimentarios", "val": 77, "jerarquia": "19", "segmento": "3"}, {"sortBy": "Location", "id": "Enfermer\u00eda", "val": "1659", "jerarquia": "20", "segmento": "2"}, {"sortBy": "Location", "id": "Enfermer\u00eda Universitaria", "val": 139, "jerarquia": "20", "segmento": "3"}, {"sortBy": "Location", "id": "Revista Cubana de Enfermer\u00eda", "val": 466, "jerarquia": "20", "segmento": "3"}, {"sortBy": "Location", "id": "Revista de Enfermer\u00eda del Instituto Mexicano del Seguro Social", "val": 519, "jerarquia": "20", "segmento": "3"}, {"sortBy": "Location", "id": "Revista de Enfermer\u00eda Neurol\u00f3gica", "val": 134, "jerarquia": "20", "segmento": "3"}, {"sortBy": "Location", "id": "Epidemiolog\u00eda", "val": "3359", "jerarquia": "21", "segmento": "2"}, {"sortBy": "Location", "id": "Archivos de Salud P\u00fablica", "val": 7, "jerarquia": "21", "segmento": "3"}, {"sortBy": "Location", "id": "Evidencia M\u00e9dica e Investigaci\u00f3n en Salud", "val": 226, "jerarquia": "21", "segmento": "3"}, {"sortBy": "Location", "id": "Investigaci\u00f3n en Salud", "val": 111, "jerarquia": "21", "segmento": "3"}, {"sortBy": "Location", "id": "Revista Cubana de Higiene y Epidemiolog\u00eda", "val": 190, "jerarquia": "21", "segmento": "3"}, {"sortBy": "Location", "id": "Revista Cubana de Salud P\u00fablica", "val": 591, "jerarquia": "21", "segmento": "3"}, {"sortBy": "Location", "id": "Revista Salud P\u00fablica y Nutrici\u00f3n", "val": 471, "jerarquia": "21", "segmento": "3"}, {"sortBy": "Location", "id": "Salud P\u00fablica de M\u00e9xico", "val": 1763, "jerarquia": "21", "segmento": "3"}, {"sortBy": "Location", "id": "Estomatolog\u00eda", "val": "3529", "jerarquia": "22", "segmento": "2"}, {"sortBy": "Location", "id": "Odovtos - International Journal of Dental Sciences", "val": 186, "jerarquia": "22", "segmento": "3"}, {"sortBy": "Location", "id": "Oral", "val": 321, "jerarquia": "22", "segmento": "3"}, {"sortBy": "Location", "id": "Revista Cubana de Estomatolog\u00eda", "val": 463, "jerarquia": "22", "segmento": "3"}, {"sortBy": "Location", "id": "Revista de la Asociaci\u00f3n Dental Mexicana", "val": 1176, "jerarquia": "22", "segmento": "3"}, {"sortBy": "Location", "id": "Revista de Odontopediatr\u00eda Latinoamericana", "val": 110, "jerarquia": "22", "segmento": "3"}, {"sortBy": "Location", "id": "Revista Mexicana de Ortodoncia", "val": 207, "jerarquia": "22", "segmento": "3"}, {"sortBy": "Location", "id": "Revista Mexicana de Periodontolog\u00eda", "val": 164, "jerarquia": "22", "segmento": "3"}, {"sortBy": "Location", "id": "Revista Odontol\u00f3gica Mexicana", "val": 573, "jerarquia": "22", "segmento": "3"}, {"sortBy": "Location", "id": "Revista Tam\u00e9", "val": 73, "jerarquia": "22", "segmento": "3"}, {"sortBy": "Location", "id": "Farmacolog\u00eda", "val": "371", "jerarquia": "23", "segmento": "2"}, {"sortBy": "Location", "id": "Revista Cubana de Farmacia", "val": 371, "jerarquia": "23", "segmento": "3"}, {"sortBy": "Location", "id": "Fertilidad", "val": "611", "jerarquia": "24", "segmento": "2"}, {"sortBy": "Location", "id": "Perinatolog\u00eda y Reproducci\u00f3n Humana", "val": 460, "jerarquia": "24", "segmento": "3"}, {"sortBy": "Location", "id": "Filosof\u00eda de la Medicina", "val": "176", "jerarquia": "25", "segmento": "2"}, {"sortBy": "Location", "id": "Bolet\u00edn Mexicano de Historia y Filosof\u00eda de la Medicina", "val": 176, "jerarquia": "25", "segmento": "3"}, {"sortBy": "Location", "id": "Foniatr\u00eda", "val": "88", "jerarquia": "26", "segmento": "2"}, {"sortBy": "Location", "id": "Gastroenterolog\u00eda", "val": "1921", "jerarquia": "27", "segmento": "2"}, {"sortBy": "Location", "id": "Annals of Hepatology", "val": 1530, "jerarquia": "27", "segmento": "3"}, {"sortBy": "Location", "id": "Revista de Gastroenterolog\u00eda de M\u00e9xico", "val": 292, "jerarquia": "27", "segmento": "3"}, {"sortBy": "Location", "id": "Gen\u00e9tica M\u00e9dica", "val": "183", "jerarquia": "28", "segmento": "2"}, {"sortBy": "Location", "id": "Revista Cubana de Gen\u00e9tica Comunitaria", "val": 178, "jerarquia": "28", "segmento": "3"}, {"sortBy": "Location", "id": "Revista Mexicana de C\u00e9lulas Madre y Medicina Biorregenerativa", "val": 5, "jerarquia": "28", "segmento": "3"}, {"sortBy": "Location", "id": "Geriatr\u00eda", "val": "118", "jerarquia": "29", "segmento": "2"}, {"sortBy": "Location", "id": "Geroinfo", "val": 118, "jerarquia": "29", "segmento": "3"}, {"sortBy": "Location", "id": "Gerontolog\u00eda", "val": "118", "jerarquia": "30", "segmento": "2"}, {"sortBy": "Location", "id": "Ginecolog\u00eda", "val": "2713", "jerarquia": "31", "segmento": "2"}, {"sortBy": "Location", "id": "Archivos de Investigaci\u00f3n Materno Infantil", "val": 246, "jerarquia": "31", "segmento": "3"}, {"sortBy": "Location", "id": "Archivos M\u00e9dicos de Actualizaci\u00f3n en Tracto Genital Inferior", "val": 85, "jerarquia": "31", "segmento": "3"}, {"sortBy": "Location", "id": "Ginecolog\u00eda y Obstetricia de M\u00e9xico", "val": 1929, "jerarquia": "31", "segmento": "3"}, {"sortBy": "Location", "id": "Revista Cubana de Obstetricia y Ginecolog\u00eda", "val": 444, "jerarquia": "31", "segmento": "3"}, {"sortBy": "Location", "id": "Revista de Enfermedades del Tracto Genital Inferior", "val": 9, "jerarquia": "31", "segmento": "3"}, {"sortBy": "Location", "id": "Hematolog\u00eda", "val": "979", "jerarquia": "32", "segmento": "2"}, {"sortBy": "Location", "id": "Revista Cubana de Hematolog\u00eda, Inmunolog\u00eda y Hemoterapia", "val": 435, "jerarquia": "32", "segmento": "3"}, {"sortBy": "Location", "id": "Revista de Hematolog\u00eda", "val": 404, "jerarquia": "32", "segmento": "3"}, {"sortBy": "Location", "id": "Revista Mexicana de Medicina Transfusional", "val": 140, "jerarquia": "32", "segmento": "3"}, {"sortBy": "Location", "id": "Hepatolog\u00eda", "val": "1530", "jerarquia": "33", "segmento": "2"}, {"sortBy": "Location", "id": "Historia de la Medicina", "val": "176", "jerarquia": "34", "segmento": "2"}, {"sortBy": "Location", "id": "Imagenolog\u00eda", "val": "18", "jerarquia": "35", "segmento": "2"}, {"sortBy": "Location", "id": "Infectolog\u00eda", "val": "926", "jerarquia": "36", "segmento": "2"}, {"sortBy": "Location", "id": "Enfermedades Infecciosas y Microbiolog\u00eda", "val": 470, "jerarquia": "36", "segmento": "3"}, {"sortBy": "Location", "id": "Revista de Enfermedades Infecciosas en Pediatr\u00eda", "val": 295, "jerarquia": "36", "segmento": "3"}, {"sortBy": "Location", "id": "Revista Latinoamericana de Infectolog\u00eda Pedi\u00e1trica", "val": 161, "jerarquia": "36", "segmento": "3"}, {"sortBy": "Location", "id": "Inform\u00e1tica M\u00e9dica", "val": "218", "jerarquia": "37", "segmento": "2"}, {"sortBy": "Location", "id": "Revista Cubana de Inform\u00e1tica M\u00e9dica", "val": 218, "jerarquia": "37", "segmento": "3"}, {"sortBy": "Location", "id": "Ingenier\u00eda Biom\u00e9dica", "val": "293", "jerarquia": "38", "segmento": "2"}, {"sortBy": "Location", "id": "Revista Mexicana de Ingenier\u00eda Biom\u00e9dica", "val": 293, "jerarquia": "38", "segmento": "3"}, {"sortBy": "Location", "id": "Inmunolog\u00eda", "val": "777", "jerarquia": "39", "segmento": "2"}, {"sortBy": "Location", "id": "Investigaci\u00f3n B\u00e1sica", "val": "1440", "jerarquia": "40", "segmento": "2"}, {"sortBy": "Location", "id": "Revista de Investigaci\u00f3n Cl\u00ednica", "val": 975, "jerarquia": "40", "segmento": "3"}, {"sortBy": "Location", "id": "Revista Latinoamericana de Microbiolog\u00eda", "val": 239, "jerarquia": "40", "segmento": "3"}, {"sortBy": "Location", "id": "Investigaci\u00f3n Biom\u00e9dica", "val": "2272", "jerarquia": "41", "segmento": "2"}, {"sortBy": "Location", "id": "Revista Biom\u00e9dica", "val": 570, "jerarquia": "41", "segmento": "3"}, {"sortBy": "Location", "id": "Revista Cubana de Investigaciones Biom\u00e9dicas", "val": 489, "jerarquia": "41", "segmento": "3"}, {"sortBy": "Location", "id": "Investigaci\u00f3n Cl\u00ednica", "val": "2173", "jerarquia": "42", "segmento": "2"}, {"sortBy": "Location", "id": "Investigaci\u00f3n Medicoquir\u00fargica", "val": "277", "jerarquia": "43", "segmento": "2"}, {"sortBy": "Location", "id": "Investigaciones Medicoquir\u00fargicas", "val": 277, "jerarquia": "43", "segmento": "3"}, {"sortBy": "Location", "id": "Laboratorio Cl\u00ednico", "val": "1045", "jerarquia": "44", "segmento": "2"}, {"sortBy": "Location", "id": "Medicina & Laboratorio", "val": 261, "jerarquia": "44", "segmento": "3"}, {"sortBy": "Location", "id": "Revista Mexicana de Patolog\u00eda Cl\u00ednica y Medicina de Laboratorio", "val": 784, "jerarquia": "44", "segmento": "3"}, {"sortBy": "Location", "id": "Mastolog\u00eda", "val": "73", "jerarquia": "45", "segmento": "2"}, {"sortBy": "Location", "id": "Revista Mexicana de Mastolog\u00eda", "val": 73, "jerarquia": "45", "segmento": "3"}, {"sortBy": "Location", "id": "Medicina Cr\u00edtica", "val": "1476", "jerarquia": "46", "segmento": "2"}, {"sortBy": "Location", "id": "Archivos de Medicina de Urgencia de M\u00e9xico", "val": 100, "jerarquia": "46", "segmento": "3"}, {"sortBy": "Location", "id": "Medicina Cr\u00edtica", "val": 848, "jerarquia": "46", "segmento": "3"}, {"sortBy": "Location", "id": "Revista Cubana de Medicina Intensiva y Emergencias", "val": 366, "jerarquia": "46", "segmento": "3"}, {"sortBy": "Location", "id": "Revista Mexicana de Medicina de Urgencias", "val": 14, "jerarquia": "46", "segmento": "3"}, {"sortBy": "Location", "id": "Trauma. La urgencia m\u00e9dica de hoy", "val": 148, "jerarquia": "46", "segmento": "3"}, {"sortBy": "Location", "id": "Medicina Cut\u00e1nea", "val": "2837", "jerarquia": "47", "segmento": "2"}, {"sortBy": "Location", "id": "Medicina de la Reproducci\u00f3n", "val": "611", "jerarquia": "48", "segmento": "2"}, {"sortBy": "Location", "id": "Medicina de Laboratorio", "val": "1045", "jerarquia": "49", "segmento": "2"}, {"sortBy": "Location", "id": "Medicina de Urgencia", "val": "1476", "jerarquia": "50", "segmento": "2"}, {"sortBy": "Location", "id": "Medicina del Trabajo", "val": "313", "jerarquia": "51", "segmento": "2"}, {"sortBy": "Location", "id": "Revista Cubana de Salud y Trabajo", "val": 259, "jerarquia": "51", "segmento": "3"}, {"sortBy": "Location", "id": "Revista Latinoamericana de Salud en el Trabajo", "val": 54, "jerarquia": "51", "segmento": "3"}, {"sortBy": "Location", "id": "Medicina Familiar", "val": "1774", "jerarquia": "52", "segmento": "2"}, {"sortBy": "Location", "id": "Archivos en Medicina Familiar", "val": 361, "jerarquia": "52", "segmento": "3"}, {"sortBy": "Location", "id": "Atenci\u00f3n Familiar", "val": 441, "jerarquia": "52", "segmento": "3"}, {"sortBy": "Location", "id": "Medicina F\u00edsica", "val": "673", "jerarquia": "53", "segmento": "2"}, {"sortBy": "Location", "id": "Investigaci\u00f3n en Discapacidad", "val": 125, "jerarquia": "53", "segmento": "3"}, {"sortBy": "Location", "id": "Revista Cubana de Medicina F\u00edsica y Rehabilitaci\u00f3n", "val": 237, "jerarquia": "53", "segmento": "3"}, {"sortBy": "Location", "id": "Revista Mexicana de Medicina F\u00edsica y Rehabilitaci\u00f3n", "val": 311, "jerarquia": "53", "segmento": "3"}, {"sortBy": "Location", "id": "Medicina F\u00edsica y Rehabilitaci\u00f3n", "val": "673", "jerarquia": "54", "segmento": "2"}, {"sortBy": "Location", "id": "Medicina Forense", "val": "198", "jerarquia": "55", "segmento": "2"}, {"sortBy": "Location", "id": "Revista Mexicana de Medicina Forense y Ciencias de la Salud", "val": 198, "jerarquia": "55", "segmento": "3"}, {"sortBy": "Location", "id": "Medicina General", "val": "35921", "jerarquia": "56", "segmento": "2"}, {"sortBy": "Location", "id": "Acta Cient\u00edfica Estudiantil", "val": 107, "jerarquia": "56", "segmento": "3"}, {"sortBy": "Location", "id": "Acta M\u00e9dica del Centro", "val": 595, "jerarquia": "56", "segmento": "3"}, {"sortBy": "Location", "id": "Acta M\u00e9dica Grupo \u00c1ngeles", "val": 1033, "jerarquia": "56", "segmento": "3"}, {"sortBy": "Location", "id": "Anales M\u00e9dicos de la Asociaci\u00f3n M\u00e9dica del Centro M\u00e9dico ABC", "val": 1040, "jerarquia": "56", "segmento": "3"}, {"sortBy": "Location", "id": "Correo Cient\u00edfico M\u00e9dico de Holgu\u00edn", "val": 818, "jerarquia": "56", "segmento": "3"}, {"sortBy": "Location", "id": "El Residente", "val": 232, "jerarquia": "56", "segmento": "3"}, {"sortBy": "Location", "id": "Gaceta M\u00e9dica de M\u00e9xico", "val": 2158, "jerarquia": "56", "segmento": "3"}, {"sortBy": "Location", "id": "Gaceta M\u00e9dica Espirituana", "val": 380, "jerarquia": "56", "segmento": "3"}, {"sortBy": "Location", "id": "Hip\u00f3crates Revista M\u00e9dica", "val": 57, "jerarquia": "56", "segmento": "3"}, {"sortBy": "Location", "id": "Humanidades M\u00e9dicas", "val": 363, "jerarquia": "56", "segmento": "3"}, {"sortBy": "Location", "id": "La Quebrada", "val": 19, "jerarquia": "56", "segmento": "3"}, {"sortBy": "Location", "id": "M\u00e9dica Sur", "val": 558, "jerarquia": "56", "segmento": "3"}, {"sortBy": "Location", "id": "MEDICC Review", "val": 594, "jerarquia": "56", "segmento": "3"}, {"sortBy": "Location", "id": "Medicentro", "val": 461, "jerarquia": "56", "segmento": "3"}, {"sortBy": "Location", "id": "Medicina Interna de M\u00e9xico", "val": 1679, "jerarquia": "56", "segmento": "3"}, {"sortBy": "Location", "id": "Medicina Universitaria", "val": 94, "jerarquia": "56", "segmento": "3"}, {"sortBy": "Location", "id": "Medimay", "val": 340, "jerarquia": "56", "segmento": "3"}, {"sortBy": "Location", "id": "MediSan", "val": 1640, "jerarquia": "56", "segmento": "3"}, {"sortBy": "Location", "id": "MediSur", "val": 853, "jerarquia": "56", "segmento": "3"}, {"sortBy": "Location", "id": "Multimed", "val": 727, "jerarquia": "56", "segmento": "3"}, {"sortBy": "Location", "id": "Panorama Cuba y Salud", "val": 447, "jerarquia": "56", "segmento": "3"}, {"sortBy": "Location", "id": "Revista Archivo M\u00e9dico de Camag\u00fcey", "val": 677, "jerarquia": "56", "segmento": "3"}, {"sortBy": "Location", "id": "Revista Cl\u00ednica de la Escuela de Medicina de la Universidad de Costa Rica", "val": 298, "jerarquia": "56", "segmento": "3"}, {"sortBy": "Location", "id": "Revista Cubana de Informaci\u00f3n en Ciencias de la Salud (ACIMED)", "val": 432, "jerarquia": "56", "segmento": "3"}, {"sortBy": "Location", "id": "Revista Cubana de Medicina", "val": 296, "jerarquia": "56", "segmento": "3"}, {"sortBy": "Location", "id": "Revista Cubana de Medicina General Integral", "val": 461, "jerarquia": "56", "segmento": "3"}, {"sortBy": "Location", "id": "Revista Cubana de Plantas Medicinales", "val": 310, "jerarquia": "56", "segmento": "3"}, {"sortBy": "Location", "id": "Revista de Ciencias M\u00e9dicas de Pinar del R\u00edo", "val": 1000, "jerarquia": "56", "segmento": "3"}, {"sortBy": "Location", "id": "Revista de Enfermedades no Transmisibles Finlay", "val": 354, "jerarquia": "56", "segmento": "3"}, {"sortBy": "Location", "id": "Revista de la Facultad de Medicina UNAM", "val": 1439, "jerarquia": "56", "segmento": "3"}, {"sortBy": "Location", "id": "Revista del Hospital General Dr. Manuel Gea Gonz\u00e1lez", "val": 112, "jerarquia": "56", "segmento": "3"}, {"sortBy": "Location", "id": "Revista del Hospital Ju\u00e1rez de M\u00e9xico", "val": 784, "jerarquia": "56", "segmento": "3"}, {"sortBy": "Location", "id": "Revista Habanera de Ciencias M\u00e9dicas", "val": 787, "jerarquia": "56", "segmento": "3"}, {"sortBy": "Location", "id": "Revista Latinoamericana de Simulaci\u00f3n Cl\u00ednica", "val": 43, "jerarquia": "56", "segmento": "3"}, {"sortBy": "Location", "id": "Revista M\u00e9dica de Costa Rica y Centroam\u00e9rica", "val": 1040, "jerarquia": "56", "segmento": "3"}, {"sortBy": "Location", "id": "Revista M\u00e9dica de la Universidad Veracruzana", "val": 290, "jerarquia": "56", "segmento": "3"}, {"sortBy": "Location", "id": "Revista M\u00e9dica del Hospital General de M\u00e9xico", "val": 484, "jerarquia": "56", "segmento": "3"}, {"sortBy": "Location", "id": "Revista M\u00e9dica del Instituto Mexicano del Seguro Social", "val": 2069, "jerarquia": "56", "segmento": "3"}, {"sortBy": "Location", "id": "Revista M\u00e9dica Electr\u00f3nica", "val": 1022, "jerarquia": "56", "segmento": "3"}, {"sortBy": "Location", "id": "Revista M\u00e9dica MD", "val": 615, "jerarquia": "56", "segmento": "3"}, {"sortBy": "Location", "id": "Revista M\u00e9dica Sinergia", "val": 311, "jerarquia": "56", "segmento": "3"}, {"sortBy": "Location", "id": "Revista Universitaria en Ciencias de la Salud", "val": 23, "jerarquia": "56", "segmento": "3"}, {"sortBy": "Location", "id": "Revista Waxapa", "val": 159, "jerarquia": "56", "segmento": "3"}, {"sortBy": "Location", "id": "Salud Jalisco", "val": 245, "jerarquia": "56", "segmento": "3"}, {"sortBy": "Location", "id": "Salud Quintana Roo", "val": 40, "jerarquia": "56", "segmento": "3"}, {"sortBy": "Location", "id": "VacciMonitor", "val": 178, "jerarquia": "56", "segmento": "3"}, {"sortBy": "Location", "id": "Medicina Intensiva", "val": "366", "jerarquia": "57", "segmento": "2"}, {"sortBy": "Location", "id": "Medicina Interna", "val": "1679", "jerarquia": "58", "segmento": "2"}, {"sortBy": "Location", "id": "Medicina Legal", "val": "296", "jerarquia": "59", "segmento": "2"}, {"sortBy": "Location", "id": "Medicina Militar", "val": "460", "jerarquia": "60", "segmento": "2"}, {"sortBy": "Location", "id": "Revista Cubana de Medicina Militar", "val": 460, "jerarquia": "60", "segmento": "3"}, {"sortBy": "Location", "id": "Medicina Transfusional", "val": "140", "jerarquia": "61", "segmento": "2"}, {"sortBy": "Location", "id": "Medicina Tropical", "val": "313", "jerarquia": "62", "segmento": "2"}, {"sortBy": "Location", "id": "Revista Cubana de Medicina Tropical", "val": 313, "jerarquia": "62", "segmento": "3"}, {"sortBy": "Location", "id": "Microbiolog\u00eda", "val": "709", "jerarquia": "63", "segmento": "2"}, {"sortBy": "Location", "id": "Nefrolog\u00eda", "val": "1170", "jerarquia": "64", "segmento": "2"}, {"sortBy": "Location", "id": "Bolet\u00edn del Colegio Mexicano de Urolog\u00eda", "val": 125, "jerarquia": "64", "segmento": "3"}, {"sortBy": "Location", "id": "Revista Cubana de Urolog\u00eda", "val": 219, "jerarquia": "64", "segmento": "3"}, {"sortBy": "Location", "id": "Revista Mexicana de Urolog\u00eda", "val": 826, "jerarquia": "64", "segmento": "3"}, {"sortBy": "Location", "id": "Neonatolog\u00eda", "val": "460", "jerarquia": "65", "segmento": "2"}, {"sortBy": "Location", "id": "Neumolog\u00eda", "val": "1203", "jerarquia": "66", "segmento": "2"}, {"sortBy": "Location", "id": "Revista del Instituto Nacional de Enfermedades Respiratorias", "val": 479, "jerarquia": "66", "segmento": "3"}, {"sortBy": "Location", "id": "Neurocirug\u00eda", "val": "244", "jerarquia": "67", "segmento": "2"}, {"sortBy": "Location", "id": "Revista Cubana de Neurolog\u00eda y Neurocirug\u00eda", "val": 244, "jerarquia": "67", "segmento": "3"}, {"sortBy": "Location", "id": "Neurolog\u00eda", "val": "2228", "jerarquia": "68", "segmento": "2"}, {"sortBy": "Location", "id": "Archivos de Neurociencias", "val": 573, "jerarquia": "68", "segmento": "3"}, {"sortBy": "Location", "id": "Plasticidad y Restauraci\u00f3n Neurol\u00f3gica", "val": 80, "jerarquia": "68", "segmento": "3"}, {"sortBy": "Location", "id": "Revista Mexicana de Neurociencia", "val": 952, "jerarquia": "68", "segmento": "3"}, {"sortBy": "Location", "id": "Nutrici\u00f3n", "val": "1474", "jerarquia": "69", "segmento": "2"}, {"sortBy": "Location", "id": "Revista Cubana de Alimentaci\u00f3n y Nutrici\u00f3n", "val": 463, "jerarquia": "69", "segmento": "3"}, {"sortBy": "Location", "id": "Obstetricia", "val": "2373", "jerarquia": "70", "segmento": "2"}, {"sortBy": "Location", "id": "Odontolog\u00eda", "val": "3529", "jerarquia": "71", "segmento": "2"}, {"sortBy": "Location", "id": "Oftalmolog\u00eda", "val": "1699", "jerarquia": "72", "segmento": "2"}, {"sortBy": "Location", "id": "Mediciego", "val": 607, "jerarquia": "72", "segmento": "3"}, {"sortBy": "Location", "id": "Revista Cubana de Oftalmolog\u00eda", "val": 519, "jerarquia": "72", "segmento": "3"}, {"sortBy": "Location", "id": "Revista Mexicana de Oftalmolog\u00eda", "val": 573, "jerarquia": "72", "segmento": "3"}, {"sortBy": "Location", "id": "Ortodoncia", "val": "207", "jerarquia": "73", "segmento": "2"}, {"sortBy": "Location", "id": "Ortopedia", "val": "2609", "jerarquia": "74", "segmento": "2"}, {"sortBy": "Location", "id": "Acta Ortop\u00e9dica Mexicana", "val": 1533, "jerarquia": "74", "segmento": "3"}, {"sortBy": "Location", "id": "Orthotips AMOT", "val": 702, "jerarquia": "74", "segmento": "3"}, {"sortBy": "Location", "id": "Revista Cubana de Ortopedia y Traumatolog\u00eda", "val": 160, "jerarquia": "74", "segmento": "3"}, {"sortBy": "Location", "id": "Revista Mexicana de Ortopedia Pedi\u00e1trica", "val": 194, "jerarquia": "74", "segmento": "3"}, {"sortBy": "Location", "id": "Otoneurolog\u00eda", "val": "88", "jerarquia": "75", "segmento": "2"}, {"sortBy": "Location", "id": "Otorrinolaringolog\u00eda", "val": "605", "jerarquia": "76", "segmento": "2"}, {"sortBy": "Location", "id": "Anales de Otorrinolaringolog\u00eda Mexicana", "val": 605, "jerarquia": "76", "segmento": "3"}, {"sortBy": "Location", "id": "Ozonoterapia", "val": "6", "jerarquia": "77", "segmento": "2"}, {"sortBy": "Location", "id": "Revista de Ozonoterapia", "val": 6, "jerarquia": "77", "segmento": "3"}, {"sortBy": "Location", "id": "Patologia Cl\u00ednica", "val": "1073", "jerarquia": "78", "segmento": "2"}, {"sortBy": "Location", "id": "Patolog\u00eda Revista Latinoamericana", "val": 289, "jerarquia": "78", "segmento": "3"}, {"sortBy": "Location", "id": "Pediatr\u00eda", "val": "5330", "jerarquia": "79", "segmento": "2"}, {"sortBy": "Location", "id": "Acta Pedi\u00e1trica de M\u00e9xico", "val": 990, "jerarquia": "79", "segmento": "3"}, {"sortBy": "Location", "id": "Bolet\u00edn Cl\u00ednico Hospital Infantil del Estado de Sonora", "val": 280, "jerarquia": "79", "segmento": "3"}, {"sortBy": "Location", "id": "Bolet\u00edn M\u00e9dico del Hospital Infantil de M\u00e9xico", "val": 635, "jerarquia": "79", "segmento": "3"}, {"sortBy": "Location", "id": "Pediatr\u00eda de M\u00e9xico", "val": 273, "jerarquia": "79", "segmento": "3"}, {"sortBy": "Location", "id": "Revista Cubana de Pediatr\u00eda", "val": 571, "jerarquia": "79", "segmento": "3"}, {"sortBy": "Location", "id": "Revista Mexicana de Pediatr\u00eda", "val": 1143, "jerarquia": "79", "segmento": "3"}, {"sortBy": "Location", "id": "Perinatolog\u00eda", "val": "857", "jerarquia": "80", "segmento": "2"}, {"sortBy": "Location", "id": "Periodontolog\u00eda", "val": "164", "jerarquia": "81", "segmento": "2"}, {"sortBy": "Location", "id": "Proctolog\u00eda", "val": "99", "jerarquia": "82", "segmento": "2"}, {"sortBy": "Location", "id": "Psicolog\u00eda", "val": "968", "jerarquia": "83", "segmento": "2"}, {"sortBy": "Location", "id": "Revista Electr\u00f3nica de Psicolog\u00eda Iztacala", "val": 783, "jerarquia": "83", "segmento": "3"}, {"sortBy": "Location", "id": "Revista Mexicana de Investigaci\u00f3n en Psicolog\u00eda", "val": 185, "jerarquia": "83", "segmento": "3"}, {"sortBy": "Location", "id": "Psiquiatr\u00eda", "val": "1746", "jerarquia": "84", "segmento": "2"}, {"sortBy": "Location", "id": "Revista del Hospital Psiqui\u00e1trico de La Habana ", "val": 277, "jerarquia": "84", "segmento": "3"}, {"sortBy": "Location", "id": "Revista Latinoamericana de Psiquiatr\u00eda", "val": 28, "jerarquia": "84", "segmento": "3"}, {"sortBy": "Location", "id": "Salud Mental", "val": 1119, "jerarquia": "84", "segmento": "3"}, {"sortBy": "Location", "id": "Puericultura", "val": "4387", "jerarquia": "85", "segmento": "2"}, {"sortBy": "Location", "id": "Radiolog\u00eda", "val": "763", "jerarquia": "86", "segmento": "2"}, {"sortBy": "Location", "id": "Anales de Radiolog\u00eda, M\u00e9xico", "val": 763, "jerarquia": "86", "segmento": "3"}, {"sortBy": "Location", "id": "Rehabilitaci\u00f3n", "val": "673", "jerarquia": "87", "segmento": "2"}, {"sortBy": "Location", "id": "Reumatolog\u00eda", "val": "387", "jerarquia": "88", "segmento": "2"}, {"sortBy": "Location", "id": "Revista Cubana de Reumatolog\u00eda", "val": 387, "jerarquia": "88", "segmento": "3"}, {"sortBy": "Location", "id": "Salud Mental", "val": "1902", "jerarquia": "89", "segmento": "2"}, {"sortBy": "Location", "id": "Salud P\u00fablica", "val": "2859", "jerarquia": "90", "segmento": "2"}, {"sortBy": "Location", "id": "Revista Cubana de Salud P\u00fablica Internacional", "val": 27, "jerarquia": "90", "segmento": "3"}, {"sortBy": "Location", "id": "Sanidad Militar", "val": "1661", "jerarquia": "91", "segmento": "2"}, {"sortBy": "Location", "id": "Revista de Sanidad Militar", "val": 1201, "jerarquia": "91", "segmento": "3"}, {"sortBy": "Location", "id": "Sexolog\u00eda", "val": "84", "jerarquia": "92", "segmento": "2"}, {"sortBy": "Location", "id": "Revista Sexolog\u00eda y Sociedad", "val": 84, "jerarquia": "92", "segmento": "3"}, {"sortBy": "Location", "id": "Simulaci\u00f3n Cl\u00ednica", "val": "43", "jerarquia": "93", "segmento": "2"}, {"sortBy": "Location", "id": "Tecnolog\u00edas Biom\u00e9dicas", "val": "384", "jerarquia": "94", "segmento": "2"}, {"sortBy": "Location", "id": "Revista Cubana de Tecnolog\u00eda de la Salud", "val": 384, "jerarquia": "94", "segmento": "3"}, {"sortBy": "Location", "id": "Terapia Intensiva", "val": "1362", "jerarquia": "95", "segmento": "2"}, {"sortBy": "Location", "id": "Toxicolog\u00eda", "val": "21", "jerarquia": "96", "segmento": "2"}, {"sortBy": "Location", "id": "Revista Cubana de Toxicolog\u00eda", "val": 21, "jerarquia": "96", "segmento": "3"}, {"sortBy": "Location", "id": "Trasplantes", "val": "226", "jerarquia": "97", "segmento": "2"}, {"sortBy": "Location", "id": "Traumatolog\u00eda", "val": "2235", "jerarquia": "98", "segmento": "2"}, {"sortBy": "Location", "id": "Urolog\u00eda", "val": "1170", "jerarquia": "99", "segmento": "2"}, {"sortBy": "Location", "id": "Veterinaria", "val": "1117", "jerarquia": "100", "segmento": "2"}, {"sortBy": "Location", "id": "Abanico Veterinario", "val": 217, "jerarquia": "100", "segmento": "3"}, {"sortBy": "Location", "id": "Veterinaria M\u00e9xico", "val": 900, "jerarquia": "100", "segmento": "3"}],

  
  "links": [{"source": "Alergolog\u00eda", "target": "Alergia, Asma e Inmunolog\u00eda Pedi\u00e1tricas", "value": 342}, {"source": "Anestesiolog\u00eda", "target": "Revista Cubana de Anestesiolog\u00eda y Reanimaci\u00f3n", "value": 254}, {"source": "Anestesiolog\u00eda", "target": "Revista Mexicana de Anestesiolog\u00eda", "value": 3313}, {"source": "Angiolog\u00eda", "target": "Revista Cubana de Angiolog\u00eda y Cirug\u00eda Vascular", "value": 208}, {"source": "Angiolog\u00eda", "target": "Revista Mexicana de Angiolog\u00eda", "value": 349}, {"source": "Arbitraje M\u00e9dico", "target": "Revista CONAMED", "value": 972}, {"source": "Audiolog\u00eda", "target": "Revista Mexicana de Comunicaci\u00f3n, Audiolog\u00eda, Otoneurolog\u00eda y Foniatr\u00eda", "value": 88}, {"source": "Bioqu\u00edmica", "target": "Bioquimia", "value": 427}, {"source": "Bioqu\u00edmica", "target": "Revista de Educaci\u00f3n Bioqu\u00edmica", "value": 301}, {"source": "Bioqu\u00edmica", "target": "TIP Revista Especializada en Ciencias Qu\u00edmico-Biol\u00f3gicas", "value": 241}, {"source": "Biotecnolog\u00eda", "target": "Biotecnolog\u00eda Aplicada", "value": 238}, {"source": "Cardiolog\u00eda", "target": "Archivos de Cardiolog\u00eda de M\u00e9xico", "value": 884}, {"source": "Cardiolog\u00eda", "target": "Cardiovascular and Metabolic Science ", "value": 63}, {"source": "Cardiolog\u00eda", "target": "CIU Cardiac Image Updated", "value": 18}, {"source": "Cardiolog\u00eda", "target": "CorSalud (Revista de Enfermedades Cardiovasculares)", "value": 498}, {"source": "Cardiolog\u00eda", "target": "Revista Cubana de Cardiolog\u00eda y Cirug\u00eda Cardiovascular", "value": 297}, {"source": "Cardiolog\u00eda", "target": "Revista Mexicana de Cardiolog\u00eda", "value": 510}, {"source": "Cardiolog\u00eda", "target": "Revista Mexicana de Enfermer\u00eda Cardiol\u00f3gica", "value": 327}, {"source": "Ciencias de la Salud", "target": "16 de abril", "value": 296}, {"source": "Ciencias de la Salud", "target": "CuidArte", "value": 74}, {"source": "Ciencias de la Salud", "target": "EduMeCentro", "value": 643}, {"source": "Ciencias de la Salud", "target": "Universidad M\u00e9dica Pinare\u00f1a", "value": 195}, {"source": "Ciencias de la Salud", "target": "Vertientes Revista Especializada en Ciencias de la Salud", "value": 107}, {"source": "Ciencias M\u00e9dicas", "target": "Acta M\u00e9dica de Cuba", "value": 183}, {"source": "Ciencias M\u00e9dicas", "target": "Revista Informaci\u00f3n Cient\u00edfica", "value": 435}, {"source": "Cirug\u00eda", "target": "Cirug\u00eda Pl\u00e1stica", "value": 513}, {"source": "Cirug\u00eda", "target": "Cirug\u00eda y Cirujanos", "value": 1502}, {"source": "Cirug\u00eda", "target": "Cirujano General", "value": 1172}, {"source": "Cirug\u00eda", "target": "Columna", "value": 20}, {"source": "Cirug\u00eda", "target": "NCT Neumolog\u00eda y Cirug\u00eda de T\u00f3rax", "value": 724}, {"source": "Cirug\u00eda", "target": "Neurolog\u00eda, Neurocirug\u00eda y Psiquiatr\u00eda", "value": 245}, {"source": "Cirug\u00eda", "target": "Revista Cubana de Angiolog\u00eda y Cirug\u00eda Vascular", "value": 208}, {"source": "Cirug\u00eda", "target": "Revista Cubana de Cirug\u00eda", "value": 423}, {"source": "Cirug\u00eda", "target": "Revista de Especialidades M\u00e9dico-Quir\u00fargicas", "value": 532}, {"source": "Cirug\u00eda", "target": "Revista Latinoamericana de Cirug\u00eda", "value": 65}, {"source": "Cirug\u00eda", "target": "Revista Mexicana de Cirug\u00eda Bucal y Maxilofacial", "value": 256}, {"source": "Cirug\u00eda", "target": "Revista Mexicana de Cirug\u00eda Endosc\u00f3pica", "value": 559}, {"source": "Cirug\u00eda", "target": "Revista Mexicana de Cirug\u00eda Pedi\u00e1trica", "value": 200}, {"source": "Cirug\u00eda", "target": "Revista Mexicana de Cirug\u00eda Tor\u00e1cica General", "value": 6}, {"source": "Cirug\u00eda", "target": "Revista Mexicana de Coloproctolog\u00eda  Enfermedades del Ano, Recto y Colon", "value": 99}, {"source": "Cirug\u00eda", "target": "Revista Mexicana de Trasplantes", "value": 226}, {"source": "Cirug\u00eda Bucal", "target": "Revista Mexicana de Cirug\u00eda Bucal y Maxilofacial", "value": 256}, {"source": "Cirug\u00eda Endosc\u00f3pica", "target": "Revista Mexicana de Cirug\u00eda Endosc\u00f3pica", "value": 559}, {"source": "Cirug\u00eda Pl\u00e1stica", "target": "Cirug\u00eda Pl\u00e1stica", "value": 513}, {"source": "Dermatolog\u00eda", "target": "Dermatolog\u00eda Cosm\u00e9tica, M\u00e9dica y Quir\u00fargica", "value": 973}, {"source": "Dermatolog\u00eda", "target": "Dermatolog\u00eda Revista Mexicana", "value": 1240}, {"source": "Dermatolog\u00eda", "target": "Folia Dermatol\u00f3gica Cubana", "value": 33}, {"source": "Dermatolog\u00eda", "target": "Medicina Cut\u00e1nea Ibero-Latino-Americana", "value": 948}, {"source": "Dermatolog\u00eda", "target": "Revista del Centro Dermatol\u00f3gico Pascua", "value": 649}, {"source": "Direcci\u00f3n en Salud", "target": "Infodir (Revista de Informaci\u00f3n para la Direcci\u00f3n en Salud)", "value": 307}, {"source": "Educaci\u00f3n M\u00e9dica", "target": "Investigaci\u00f3n en Educaci\u00f3n M\u00e9dica", "value": 163}, {"source": "Educaci\u00f3n M\u00e9dica", "target": "Revista Cubana de Educaci\u00f3n M\u00e9dica Superior", "value": 724}, {"source": "Embriolog\u00eda", "target": "Revista Mexicana de Medicina de la Reproducci\u00f3n", "value": 151}, {"source": "Endocrinolog\u00eda", "target": "Revista Cubana de Endocrinolog\u00eda", "value": 248}, {"source": "Endocrinolog\u00eda", "target": "Revista de Endocrinolog\u00eda y Nutrici\u00f3n", "value": 463}, {"source": "Endocrinolog\u00eda y Nutrici\u00f3n", "target": "Revista Mexicana de Trastornos Alimentarios", "value": 77}, {"source": "Enfermer\u00eda", "target": "CuidArte", "value": 74}, {"source": "Enfermer\u00eda", "target": "Enfermer\u00eda Universitaria", "value": 139}, {"source": "Enfermer\u00eda", "target": "Revista Cubana de Enfermer\u00eda", "value": 466}, {"source": "Enfermer\u00eda", "target": "Revista de Enfermer\u00eda del Instituto Mexicano del Seguro Social", "value": 519}, {"source": "Enfermer\u00eda", "target": "Revista de Enfermer\u00eda Neurol\u00f3gica", "value": 134}, {"source": "Enfermer\u00eda", "target": "Revista Mexicana de Enfermer\u00eda Cardiol\u00f3gica", "value": 327}, {"source": "Epidemiolog\u00eda", "target": "Archivos de Salud P\u00fablica", "value": 7}, {"source": "Epidemiolog\u00eda", "target": "Evidencia M\u00e9dica e Investigaci\u00f3n en Salud", "value": 226}, {"source": "Epidemiolog\u00eda", "target": "Investigaci\u00f3n en Salud", "value": 111}, {"source": "Epidemiolog\u00eda", "target": "Revista Cubana de Higiene y Epidemiolog\u00eda", "value": 190}, {"source": "Epidemiolog\u00eda", "target": "Revista Cubana de Salud P\u00fablica", "value": 591}, {"source": "Epidemiolog\u00eda", "target": "Revista Salud P\u00fablica y Nutrici\u00f3n", "value": 471}, {"source": "Epidemiolog\u00eda", "target": "Salud P\u00fablica de M\u00e9xico", "value": 1763}, {"source": "Estomatolog\u00eda", "target": "Odovtos - International Journal of Dental Sciences", "value": 186}, {"source": "Estomatolog\u00eda", "target": "Oral", "value": 321}, {"source": "Estomatolog\u00eda", "target": "Revista Cubana de Estomatolog\u00eda", "value": 463}, {"source": "Estomatolog\u00eda", "target": "Revista de la Asociaci\u00f3n Dental Mexicana", "value": 1176}, {"source": "Estomatolog\u00eda", "target": "Revista de Odontopediatr\u00eda Latinoamericana", "value": 110}, {"source": "Estomatolog\u00eda", "target": "Revista Mexicana de Cirug\u00eda Bucal y Maxilofacial", "value": 256}, {"source": "Estomatolog\u00eda", "target": "Revista Mexicana de Ortodoncia", "value": 207}, {"source": "Estomatolog\u00eda", "target": "Revista Mexicana de Periodontolog\u00eda", "value": 164}, {"source": "Estomatolog\u00eda", "target": "Revista Odontol\u00f3gica Mexicana", "value": 573}, {"source": "Estomatolog\u00eda", "target": "Revista Tam\u00e9", "value": 73}, {"source": "Farmacolog\u00eda", "target": "Revista Cubana de Farmacia", "value": 371}, {"source": "Fertilidad", "target": "Perinatolog\u00eda y Reproducci\u00f3n Humana", "value": 460}, {"source": "Fertilidad", "target": "Revista Mexicana de Medicina de la Reproducci\u00f3n", "value": 151}, {"source": "Filosof\u00eda de la Medicina", "target": "Bolet\u00edn Mexicano de Historia y Filosof\u00eda de la Medicina", "value": 176}, {"source": "Foniatr\u00eda", "target": "Revista Mexicana de Comunicaci\u00f3n, Audiolog\u00eda, Otoneurolog\u00eda y Foniatr\u00eda", "value": 88}, {"source": "Gastroenterolog\u00eda", "target": "Annals of Hepatology", "value": 1530}, {"source": "Gastroenterolog\u00eda", "target": "Revista de Gastroenterolog\u00eda de M\u00e9xico", "value": 292}, {"source": "Gastroenterolog\u00eda", "target": "Revista Mexicana de Coloproctolog\u00eda  Enfermedades del Ano, Recto y Colon", "value": 99}, {"source": "Gen\u00e9tica M\u00e9dica", "target": "Revista Cubana de Gen\u00e9tica Comunitaria", "value": 178}, {"source": "Gen\u00e9tica M\u00e9dica", "target": "Revista Mexicana de C\u00e9lulas Madre y Medicina Biorregenerativa", "value": 5}, {"source": "Geriatr\u00eda", "target": "Geroinfo", "value": 118}, {"source": "Gerontolog\u00eda", "target": "Geroinfo", "value": 118}, {"source": "Ginecolog\u00eda", "target": "Archivos de Investigaci\u00f3n Materno Infantil", "value": 246}, {"source": "Ginecolog\u00eda", "target": "Archivos M\u00e9dicos de Actualizaci\u00f3n en Tracto Genital Inferior", "value": 85}, {"source": "Ginecolog\u00eda", "target": "Ginecolog\u00eda y Obstetricia de M\u00e9xico", "value": 1929}, {"source": "Ginecolog\u00eda", "target": "Revista Cubana de Obstetricia y Ginecolog\u00eda", "value": 444}, {"source": "Ginecolog\u00eda", "target": "Revista de Enfermedades del Tracto Genital Inferior", "value": 9}, {"source": "Hematolog\u00eda", "target": "Revista Cubana de Hematolog\u00eda, Inmunolog\u00eda y Hemoterapia", "value": 435}, {"source": "Hematolog\u00eda", "target": "Revista de Hematolog\u00eda", "value": 404}, {"source": "Hematolog\u00eda", "target": "Revista Mexicana de Medicina Transfusional", "value": 140}, {"source": "Hepatolog\u00eda", "target": "Annals of Hepatology", "value": 1530}, {"source": "Historia de la Medicina", "target": "Bolet\u00edn Mexicano de Historia y Filosof\u00eda de la Medicina", "value": 176}, {"source": "Imagenolog\u00eda", "target": "CIU Cardiac Image Updated", "value": 18}, {"source": "Infectolog\u00eda", "target": "Enfermedades Infecciosas y Microbiolog\u00eda", "value": 470}, {"source": "Infectolog\u00eda", "target": "Revista de Enfermedades Infecciosas en Pediatr\u00eda", "value": 295}, {"source": "Infectolog\u00eda", "target": "Revista Latinoamericana de Infectolog\u00eda Pedi\u00e1trica", "value": 161}, {"source": "Inform\u00e1tica M\u00e9dica", "target": "Revista Cubana de Inform\u00e1tica M\u00e9dica", "value": 218}, {"source": "Ingenier\u00eda Biom\u00e9dica", "target": "Revista Mexicana de Ingenier\u00eda Biom\u00e9dica", "value": 293}, {"source": "Inmunolog\u00eda", "target": "Alergia, Asma e Inmunolog\u00eda Pedi\u00e1tricas", "value": 342}, {"source": "Inmunolog\u00eda", "target": "Revista Cubana de Hematolog\u00eda, Inmunolog\u00eda y Hemoterapia", "value": 435}, {"source": "Investigaci\u00f3n B\u00e1sica", "target": "Evidencia M\u00e9dica e Investigaci\u00f3n en Salud", "value": 226}, {"source": "Investigaci\u00f3n B\u00e1sica", "target": "Revista de Investigaci\u00f3n Cl\u00ednica", "value": 975}, {"source": "Investigaci\u00f3n B\u00e1sica", "target": "Revista Latinoamericana de Microbiolog\u00eda", "value": 239}, {"source": "Investigaci\u00f3n Biom\u00e9dica", "target": "Biotecnolog\u00eda Aplicada", "value": 238}, {"source": "Investigaci\u00f3n Biom\u00e9dica", "target": "Revista Biom\u00e9dica", "value": 570}, {"source": "Investigaci\u00f3n Biom\u00e9dica", "target": "Revista Cubana de Investigaciones Biom\u00e9dicas", "value": 489}, {"source": "Investigaci\u00f3n Biom\u00e9dica", "target": "Revista de Investigaci\u00f3n Cl\u00ednica", "value": 975}, {"source": "Investigaci\u00f3n Cl\u00ednica", "target": "Evidencia M\u00e9dica e Investigaci\u00f3n en Salud", "value": 226}, {"source": "Investigaci\u00f3n Cl\u00ednica", "target": "Revista CONAMED", "value": 972}, {"source": "Investigaci\u00f3n Cl\u00ednica", "target": "Revista de Investigaci\u00f3n Cl\u00ednica", "value": 975}, {"source": "Investigaci\u00f3n Medicoquir\u00fargica", "target": "Investigaciones Medicoquir\u00fargicas", "value": 277}, {"source": "Laboratorio Cl\u00ednico", "target": "Medicina & Laboratorio", "value": 261}, {"source": "Laboratorio Cl\u00ednico", "target": "Revista Mexicana de Patolog\u00eda Cl\u00ednica y Medicina de Laboratorio", "value": 784}, {"source": "Mastolog\u00eda", "target": "Revista Mexicana de Mastolog\u00eda", "value": 73}, {"source": "Medicina Cr\u00edtica", "target": "Archivos de Medicina de Urgencia de M\u00e9xico", "value": 100}, {"source": "Medicina Cr\u00edtica", "target": "Medicina Cr\u00edtica", "value": 848}, {"source": "Medicina Cr\u00edtica", "target": "Revista Cubana de Medicina Intensiva y Emergencias", "value": 366}, {"source": "Medicina Cr\u00edtica", "target": "Revista Mexicana de Medicina de Urgencias", "value": 14}, {"source": "Medicina Cr\u00edtica", "target": "Trauma. La urgencia m\u00e9dica de hoy", "value": 148}, {"source": "Medicina Cut\u00e1nea", "target": "Dermatolog\u00eda Revista Mexicana", "value": 1240}, {"source": "Medicina Cut\u00e1nea", "target": "Medicina Cut\u00e1nea Ibero-Latino-Americana", "value": 948}, {"source": "Medicina Cut\u00e1nea", "target": "Revista del Centro Dermatol\u00f3gico Pascua", "value": 649}, {"source": "Medicina de la Reproducci\u00f3n", "target": "Perinatolog\u00eda y Reproducci\u00f3n Humana", "value": 460}, {"source": "Medicina de la Reproducci\u00f3n", "target": "Revista Mexicana de Medicina de la Reproducci\u00f3n", "value": 151}, {"source": "Medicina de Laboratorio", "target": "Medicina & Laboratorio", "value": 261}, {"source": "Medicina de Laboratorio", "target": "Revista Mexicana de Patolog\u00eda Cl\u00ednica y Medicina de Laboratorio", "value": 784}, {"source": "Medicina de Urgencia", "target": "Archivos de Medicina de Urgencia de M\u00e9xico", "value": 100}, {"source": "Medicina de Urgencia", "target": "Medicina Cr\u00edtica", "value": 848}, {"source": "Medicina de Urgencia", "target": "Revista Cubana de Medicina Intensiva y Emergencias", "value": 366}, {"source": "Medicina de Urgencia", "target": "Revista Mexicana de Medicina de Urgencias", "value": 14}, {"source": "Medicina de Urgencia", "target": "Trauma. La urgencia m\u00e9dica de hoy", "value": 148}, {"source": "Medicina del Trabajo", "target": "Revista Cubana de Salud y Trabajo", "value": 259}, {"source": "Medicina del Trabajo", "target": "Revista Latinoamericana de Salud en el Trabajo", "value": 54}, {"source": "Medicina Familiar", "target": "Archivos en Medicina Familiar", "value": 361}, {"source": "Medicina Familiar", "target": "Atenci\u00f3n Familiar", "value": 441}, {"source": "Medicina Familiar", "target": "Revista CONAMED", "value": 972}, {"source": "Medicina F\u00edsica", "target": "Investigaci\u00f3n en Discapacidad", "value": 125}, {"source": "Medicina F\u00edsica", "target": "Revista Cubana de Medicina F\u00edsica y Rehabilitaci\u00f3n", "value": 237}, {"source": "Medicina F\u00edsica", "target": "Revista Mexicana de Medicina F\u00edsica y Rehabilitaci\u00f3n", "value": 311}, {"source": "Medicina F\u00edsica y Rehabilitaci\u00f3n", "target": "Investigaci\u00f3n en Discapacidad", "value": 125}, {"source": "Medicina F\u00edsica y Rehabilitaci\u00f3n", "target": "Revista Cubana de Medicina F\u00edsica y Rehabilitaci\u00f3n", "value": 237}, {"source": "Medicina F\u00edsica y Rehabilitaci\u00f3n", "target": "Revista Mexicana de Medicina F\u00edsica y Rehabilitaci\u00f3n", "value": 311}, {"source": "Medicina Forense", "target": "Revista Mexicana de Medicina Forense y Ciencias de la Salud", "value": 198}, {"source": "Medicina General", "target": "Acta Cient\u00edfica Estudiantil", "value": 107}, {"source": "Medicina General", "target": "Acta M\u00e9dica del Centro", "value": 595}, {"source": "Medicina General", "target": "Acta M\u00e9dica Grupo \u00c1ngeles", "value": 1033}, {"source": "Medicina General", "target": "Anales M\u00e9dicos de la Asociaci\u00f3n M\u00e9dica del Centro M\u00e9dico ABC", "value": 1040}, {"source": "Medicina General", "target": "Archivos en Medicina Familiar", "value": 361}, {"source": "Medicina General", "target": "Atenci\u00f3n Familiar", "value": 441}, {"source": "Medicina General", "target": "Correo Cient\u00edfico M\u00e9dico de Holgu\u00edn", "value": 818}, {"source": "Medicina General", "target": "CuidArte", "value": 74}, {"source": "Medicina General", "target": "EduMeCentro", "value": 643}, {"source": "Medicina General", "target": "El Residente", "value": 232}, {"source": "Medicina General", "target": "Evidencia M\u00e9dica e Investigaci\u00f3n en Salud", "value": 226}, {"source": "Medicina General", "target": "Gaceta M\u00e9dica de M\u00e9xico", "value": 2158}, {"source": "Medicina General", "target": "Gaceta M\u00e9dica Espirituana", "value": 380}, {"source": "Medicina General", "target": "Hip\u00f3crates Revista M\u00e9dica", "value": 57}, {"source": "Medicina General", "target": "Humanidades M\u00e9dicas", "value": 363}, {"source": "Medicina General", "target": "Investigaci\u00f3n en Educaci\u00f3n M\u00e9dica", "value": 163}, {"source": "Medicina General", "target": "La Quebrada", "value": 19}, {"source": "Medicina General", "target": "M\u00e9dica Sur", "value": 558}, {"source": "Medicina General", "target": "MEDICC Review", "value": 594}, {"source": "Medicina General", "target": "Medicentro", "value": 461}, {"source": "Medicina General", "target": "Medicina Interna de M\u00e9xico", "value": 1679}, {"source": "Medicina General", "target": "Medicina Universitaria", "value": 94}, {"source": "Medicina General", "target": "Medimay", "value": 340}, {"source": "Medicina General", "target": "MediSan", "value": 1640}, {"source": "Medicina General", "target": "MediSur", "value": 853}, {"source": "Medicina General", "target": "Multimed", "value": 727}, {"source": "Medicina General", "target": "Panorama Cuba y Salud", "value": 447}, {"source": "Medicina General", "target": "Revista Archivo M\u00e9dico de Camag\u00fcey", "value": 677}, {"source": "Medicina General", "target": "Revista Cl\u00ednica de la Escuela de Medicina de la Universidad de Costa Rica", "value": 298}, {"source": "Medicina General", "target": "Revista CONAMED", "value": 972}, {"source": "Medicina General", "target": "Revista Cubana de Educaci\u00f3n M\u00e9dica Superior", "value": 724}, {"source": "Medicina General", "target": "Revista Cubana de Informaci\u00f3n en Ciencias de la Salud (ACIMED)", "value": 432}, {"source": "Medicina General", "target": "Revista Cubana de Medicina", "value": 296}, {"source": "Medicina General", "target": "Revista Cubana de Medicina General Integral", "value": 461}, {"source": "Medicina General", "target": "Revista Cubana de Plantas Medicinales", "value": 310}, {"source": "Medicina General", "target": "Revista de Ciencias M\u00e9dicas de Pinar del R\u00edo", "value": 1000}, {"source": "Medicina General", "target": "Revista de Enfermedades no Transmisibles Finlay", "value": 354}, {"source": "Medicina General", "target": "Revista de Enfermer\u00eda del Instituto Mexicano del Seguro Social", "value": 519}, {"source": "Medicina General", "target": "Revista de Especialidades M\u00e9dico-Quir\u00fargicas", "value": 532}, {"source": "Medicina General", "target": "Revista de Investigaci\u00f3n Cl\u00ednica", "value": 975}, {"source": "Medicina General", "target": "Revista de la Facultad de Medicina UNAM", "value": 1439}, {"source": "Medicina General", "target": "Revista del Hospital General Dr. Manuel Gea Gonz\u00e1lez", "value": 112}, {"source": "Medicina General", "target": "Revista del Hospital Ju\u00e1rez de M\u00e9xico", "value": 784}, {"source": "Medicina General", "target": "Revista Habanera de Ciencias M\u00e9dicas", "value": 787}, {"source": "Medicina General", "target": "Revista Latinoamericana de Simulaci\u00f3n Cl\u00ednica", "value": 43}, {"source": "Medicina General", "target": "Revista M\u00e9dica de Costa Rica y Centroam\u00e9rica", "value": 1040}, {"source": "Medicina General", "target": "Revista M\u00e9dica de la Universidad Veracruzana", "value": 290}, {"source": "Medicina General", "target": "Revista M\u00e9dica del Hospital General de M\u00e9xico", "value": 484}, {"source": "Medicina General", "target": "Revista M\u00e9dica del Instituto Mexicano del Seguro Social", "value": 2069}, {"source": "Medicina General", "target": "Revista M\u00e9dica Electr\u00f3nica", "value": 1022}, {"source": "Medicina General", "target": "Revista M\u00e9dica MD", "value": 615}, {"source": "Medicina General", "target": "Revista M\u00e9dica Sinergia", "value": 311}, {"source": "Medicina General", "target": "Revista Mexicana de Medicina Forense y Ciencias de la Salud", "value": 198}, {"source": "Medicina General", "target": "Revista Salud P\u00fablica y Nutrici\u00f3n", "value": 471}, {"source": "Medicina General", "target": "Revista Universitaria en Ciencias de la Salud", "value": 23}, {"source": "Medicina General", "target": "Revista Waxapa", "value": 159}, {"source": "Medicina General", "target": "Salud Jalisco", "value": 245}, {"source": "Medicina General", "target": "Salud P\u00fablica de M\u00e9xico", "value": 1763}, {"source": "Medicina General", "target": "Salud Quintana Roo", "value": 40}, {"source": "Medicina General", "target": "Universidad M\u00e9dica Pinare\u00f1a", "value": 195}, {"source": "Medicina General", "target": "VacciMonitor", "value": 178}, {"source": "Medicina Intensiva", "target": "Revista Cubana de Medicina Intensiva y Emergencias", "value": 366}, {"source": "Medicina Interna", "target": "Medicina Interna de M\u00e9xico", "value": 1679}, {"source": "Medicina Legal", "target": "16 de abril", "value": 296}, {"source": "Medicina Militar", "target": "Revista Cubana de Medicina Militar", "value": 460}, {"source": "Medicina Transfusional", "target": "Revista Mexicana de Medicina Transfusional", "value": 140}, {"source": "Medicina Tropical", "target": "Revista Cubana de Medicina Tropical", "value": 313}, {"source": "Microbiolog\u00eda", "target": "Enfermedades Infecciosas y Microbiolog\u00eda", "value": 470}, {"source": "Microbiolog\u00eda", "target": "Revista Latinoamericana de Microbiolog\u00eda", "value": 239}, {"source": "Nefrolog\u00eda", "target": "Bolet\u00edn del Colegio Mexicano de Urolog\u00eda", "value": 125}, {"source": "Nefrolog\u00eda", "target": "Revista Cubana de Urolog\u00eda", "value": 219}, {"source": "Nefrolog\u00eda", "target": "Revista Mexicana de Urolog\u00eda", "value": 826}, {"source": "Neonatolog\u00eda", "target": "Perinatolog\u00eda y Reproducci\u00f3n Humana", "value": 460}, {"source": "Neumolog\u00eda", "target": "NCT Neumolog\u00eda y Cirug\u00eda de T\u00f3rax", "value": 724}, {"source": "Neumolog\u00eda", "target": "Revista del Instituto Nacional de Enfermedades Respiratorias", "value": 479}, {"source": "Neurocirug\u00eda", "target": "Revista Cubana de Neurolog\u00eda y Neurocirug\u00eda", "value": 244}, {"source": "Neurolog\u00eda", "target": "Archivos de Neurociencias", "value": 573}, {"source": "Neurolog\u00eda", "target": "Neurolog\u00eda, Neurocirug\u00eda y Psiquiatr\u00eda", "value": 245}, {"source": "Neurolog\u00eda", "target": "Plasticidad y Restauraci\u00f3n Neurol\u00f3gica", "value": 80}, {"source": "Neurolog\u00eda", "target": "Revista Cubana de Neurolog\u00eda y Neurocirug\u00eda", "value": 244}, {"source": "Neurolog\u00eda", "target": "Revista de Enfermer\u00eda Neurol\u00f3gica", "value": 134}, {"source": "Neurolog\u00eda", "target": "Revista Mexicana de Neurociencia", "value": 952}, {"source": "Nutrici\u00f3n", "target": "Revista Cubana de Alimentaci\u00f3n y Nutrici\u00f3n", "value": 463}, {"source": "Nutrici\u00f3n", "target": "Revista de Endocrinolog\u00eda y Nutrici\u00f3n", "value": 463}, {"source": "Nutrici\u00f3n", "target": "Revista Mexicana de Trastornos Alimentarios", "value": 77}, {"source": "Nutrici\u00f3n", "target": "Revista Salud P\u00fablica y Nutrici\u00f3n", "value": 471}, {"source": "Obstetricia", "target": "Ginecolog\u00eda y Obstetricia de M\u00e9xico", "value": 1929}, {"source": "Obstetricia", "target": "Revista Cubana de Obstetricia y Ginecolog\u00eda", "value": 444}, {"source": "Odontolog\u00eda", "target": "Odovtos - International Journal of Dental Sciences", "value": 186}, {"source": "Odontolog\u00eda", "target": "Oral", "value": 321}, {"source": "Odontolog\u00eda", "target": "Revista Cubana de Estomatolog\u00eda", "value": 463}, {"source": "Odontolog\u00eda", "target": "Revista de la Asociaci\u00f3n Dental Mexicana", "value": 1176}, {"source": "Odontolog\u00eda", "target": "Revista de Odontopediatr\u00eda Latinoamericana", "value": 110}, {"source": "Odontolog\u00eda", "target": "Revista Mexicana de Cirug\u00eda Bucal y Maxilofacial", "value": 256}, {"source": "Odontolog\u00eda", "target": "Revista Mexicana de Ortodoncia", "value": 207}, {"source": "Odontolog\u00eda", "target": "Revista Mexicana de Periodontolog\u00eda", "value": 164}, {"source": "Odontolog\u00eda", "target": "Revista Odontol\u00f3gica Mexicana", "value": 573}, {"source": "Odontolog\u00eda", "target": "Revista Tam\u00e9", "value": 73}, {"source": "Oftalmolog\u00eda", "target": "Mediciego", "value": 607}, {"source": "Oftalmolog\u00eda", "target": "Revista Cubana de Oftalmolog\u00eda", "value": 519}, {"source": "Oftalmolog\u00eda", "target": "Revista Mexicana de Oftalmolog\u00eda", "value": 573}, {"source": "Ortodoncia", "target": "Revista Mexicana de Ortodoncia", "value": 207}, {"source": "Ortopedia", "target": "Acta Ortop\u00e9dica Mexicana", "value": 1533}, {"source": "Ortopedia", "target": "Columna", "value": 20}, {"source": "Ortopedia", "target": "Orthotips AMOT", "value": 702}, {"source": "Ortopedia", "target": "Revista Cubana de Ortopedia y Traumatolog\u00eda", "value": 160}, {"source": "Ortopedia", "target": "Revista Mexicana de Ortopedia Pedi\u00e1trica", "value": 194}, {"source": "Otoneurolog\u00eda", "target": "Revista Mexicana de Comunicaci\u00f3n, Audiolog\u00eda, Otoneurolog\u00eda y Foniatr\u00eda", "value": 88}, {"source": "Otorrinolaringolog\u00eda", "target": "Anales de Otorrinolaringolog\u00eda Mexicana", "value": 605}, {"source": "Ozonoterapia", "target": "Revista de Ozonoterapia", "value": 6}, {"source": "Patologia Cl\u00ednica", "target": "Patolog\u00eda Revista Latinoamericana", "value": 289}, {"source": "Patologia Cl\u00ednica", "target": "Revista Mexicana de Patolog\u00eda Cl\u00ednica y Medicina de Laboratorio", "value": 784}, {"source": "Pediatr\u00eda", "target": "Acta Pedi\u00e1trica de M\u00e9xico", "value": 990}, {"source": "Pediatr\u00eda", "target": "Alergia, Asma e Inmunolog\u00eda Pedi\u00e1tricas", "value": 342}, {"source": "Pediatr\u00eda", "target": "Archivos de Investigaci\u00f3n Materno Infantil", "value": 246}, {"source": "Pediatr\u00eda", "target": "Bolet\u00edn Cl\u00ednico Hospital Infantil del Estado de Sonora", "value": 280}, {"source": "Pediatr\u00eda", "target": "Bolet\u00edn M\u00e9dico del Hospital Infantil de M\u00e9xico", "value": 635}, {"source": "Pediatr\u00eda", "target": "Pediatr\u00eda de M\u00e9xico", "value": 273}, {"source": "Pediatr\u00eda", "target": "Revista Cubana de Pediatr\u00eda", "value": 571}, {"source": "Pediatr\u00eda", "target": "Revista de Enfermedades Infecciosas en Pediatr\u00eda", "value": 295}, {"source": "Pediatr\u00eda", "target": "Revista Latinoamericana de Infectolog\u00eda Pedi\u00e1trica", "value": 161}, {"source": "Pediatr\u00eda", "target": "Revista Mexicana de Cirug\u00eda Pedi\u00e1trica", "value": 200}, {"source": "Pediatr\u00eda", "target": "Revista Mexicana de Ortopedia Pedi\u00e1trica", "value": 194}, {"source": "Pediatr\u00eda", "target": "Revista Mexicana de Pediatr\u00eda", "value": 1143}, {"source": "Perinatolog\u00eda", "target": "Archivos de Investigaci\u00f3n Materno Infantil", "value": 246}, {"source": "Perinatolog\u00eda", "target": "Perinatolog\u00eda y Reproducci\u00f3n Humana", "value": 460}, {"source": "Perinatolog\u00eda", "target": "Revista Mexicana de Medicina de la Reproducci\u00f3n", "value": 151}, {"source": "Periodontolog\u00eda", "target": "Revista Mexicana de Periodontolog\u00eda", "value": 164}, {"source": "Proctolog\u00eda", "target": "Revista Mexicana de Coloproctolog\u00eda  Enfermedades del Ano, Recto y Colon", "value": 99}, {"source": "Psicolog\u00eda", "target": "Revista Electr\u00f3nica de Psicolog\u00eda Iztacala", "value": 783}, {"source": "Psicolog\u00eda", "target": "Revista Mexicana de Investigaci\u00f3n en Psicolog\u00eda", "value": 185}, {"source": "Psiquiatr\u00eda", "target": "Neurolog\u00eda, Neurocirug\u00eda y Psiquiatr\u00eda", "value": 245}, {"source": "Psiquiatr\u00eda", "target": "Revista del Hospital Psiqui\u00e1trico de La Habana ", "value": 277}, {"source": "Psiquiatr\u00eda", "target": "Revista Latinoamericana de Psiquiatr\u00eda", "value": 28}, {"source": "Psiquiatr\u00eda", "target": "Revista Mexicana de Trastornos Alimentarios", "value": 77}, {"source": "Psiquiatr\u00eda", "target": "Salud Mental", "value": 1119}, {"source": "Puericultura", "target": "Acta Pedi\u00e1trica de M\u00e9xico", "value": 990}, {"source": "Puericultura", "target": "Bolet\u00edn Cl\u00ednico Hospital Infantil del Estado de Sonora", "value": 280}, {"source": "Puericultura", "target": "Bolet\u00edn M\u00e9dico del Hospital Infantil de M\u00e9xico", "value": 635}, {"source": "Puericultura", "target": "Pediatr\u00eda de M\u00e9xico", "value": 273}, {"source": "Puericultura", "target": "Revista Cubana de Pediatr\u00eda", "value": 571}, {"source": "Puericultura", "target": "Revista de Enfermedades Infecciosas en Pediatr\u00eda", "value": 295}, {"source": "Puericultura", "target": "Revista Mexicana de Cirug\u00eda Pedi\u00e1trica", "value": 200}, {"source": "Puericultura", "target": "Revista Mexicana de Pediatr\u00eda", "value": 1143}, {"source": "Radiolog\u00eda", "target": "Anales de Radiolog\u00eda, M\u00e9xico", "value": 763}, {"source": "Rehabilitaci\u00f3n", "target": "Investigaci\u00f3n en Discapacidad", "value": 125}, {"source": "Rehabilitaci\u00f3n", "target": "Revista Cubana de Medicina F\u00edsica y Rehabilitaci\u00f3n", "value": 237}, {"source": "Rehabilitaci\u00f3n", "target": "Revista Mexicana de Medicina F\u00edsica y Rehabilitaci\u00f3n", "value": 311}, {"source": "Reumatolog\u00eda", "target": "Revista Cubana de Reumatolog\u00eda", "value": 387}, {"source": "Salud Mental", "target": "Revista Electr\u00f3nica de Psicolog\u00eda Iztacala", "value": 783}, {"source": "Salud Mental", "target": "Salud Mental", "value": 1119}, {"source": "Salud P\u00fablica", "target": "Archivos de Salud P\u00fablica", "value": 7}, {"source": "Salud P\u00fablica", "target": "Revista Cubana de Salud P\u00fablica", "value": 591}, {"source": "Salud P\u00fablica", "target": "Revista Cubana de Salud P\u00fablica Internacional", "value": 27}, {"source": "Salud P\u00fablica", "target": "Revista Salud P\u00fablica y Nutrici\u00f3n", "value": 471}, {"source": "Salud P\u00fablica", "target": "Salud P\u00fablica de M\u00e9xico", "value": 1763}, {"source": "Sanidad Militar", "target": "Revista Cubana de Medicina Militar", "value": 460}, {"source": "Sanidad Militar", "target": "Revista de Sanidad Militar", "value": 1201}, {"source": "Sexolog\u00eda", "target": "Revista Sexolog\u00eda y Sociedad", "value": 84}, {"source": "Simulaci\u00f3n Cl\u00ednica", "target": "Revista Latinoamericana de Simulaci\u00f3n Cl\u00ednica", "value": 43}, {"source": "Tecnolog\u00edas Biom\u00e9dicas", "target": "Revista Cubana de Tecnolog\u00eda de la Salud", "value": 384}, {"source": "Terapia Intensiva", "target": "Medicina Cr\u00edtica", "value": 848}, {"source": "Terapia Intensiva", "target": "Revista Cubana de Medicina Intensiva y Emergencias", "value": 366}, {"source": "Terapia Intensiva", "target": "Trauma. La urgencia m\u00e9dica de hoy", "value": 148}, {"source": "Toxicolog\u00eda", "target": "Revista Cubana de Toxicolog\u00eda", "value": 21}, {"source": "Trasplantes", "target": "Revista Mexicana de Trasplantes", "value": 226}, {"source": "Traumatolog\u00eda", "target": "Acta Ortop\u00e9dica Mexicana", "value": 1533}, {"source": "Traumatolog\u00eda", "target": "Orthotips AMOT", "value": 702}, {"source": "Urolog\u00eda", "target": "Bolet\u00edn del Colegio Mexicano de Urolog\u00eda", "value": 125}, {"source": "Urolog\u00eda", "target": "Revista Cubana de Urolog\u00eda", "value": 219}, {"source": "Urolog\u00eda", "target": "Revista Mexicana de Urolog\u00eda", "value": 826}, {"source": "Veterinaria", "target": "Abanico Veterinario", "value": 217}, {"source": "Veterinaria", "target": "Veterinaria M\u00e9xico", "value": 900}, {"source": "medigraphic", "target": "Alergolog\u00eda", "value": 10}, {"source": "medigraphic", "target": "Anestesiolog\u00eda", "value": 10}, {"source": "medigraphic", "target": "Anestesiolog\u00eda", "value": 10}, {"source": "medigraphic", "target": "Angiolog\u00eda", "value": 10}, {"source": "medigraphic", "target": "Angiolog\u00eda", "value": 10}, {"source": "medigraphic", "target": "Arbitraje M\u00e9dico", "value": 10}, {"source": "medigraphic", "target": "Audiolog\u00eda", "value": 10}, {"source": "medigraphic", "target": "Bioqu\u00edmica", "value": 10}, {"source": "medigraphic", "target": "Bioqu\u00edmica", "value": 10}, {"source": "medigraphic", "target": "Bioqu\u00edmica", "value": 10}, {"source": "medigraphic", "target": "Biotecnolog\u00eda", "value": 10}, {"source": "medigraphic", "target": "Cardiolog\u00eda", "value": 10}, {"source": "medigraphic", "target": "Cardiolog\u00eda", "value": 10}, {"source": "medigraphic", "target": "Cardiolog\u00eda", "value": 10}, {"source": "medigraphic", "target": "Cardiolog\u00eda", "value": 10}, {"source": "medigraphic", "target": "Cardiolog\u00eda", "value": 10}, {"source": "medigraphic", "target": "Cardiolog\u00eda", "value": 10}, {"source": "medigraphic", "target": "Cardiolog\u00eda", "value": 10}, {"source": "medigraphic", "target": "Ciencias de la Salud", "value": 10}, {"source": "medigraphic", "target": "Ciencias de la Salud", "value": 10}, {"source": "medigraphic", "target": "Ciencias de la Salud", "value": 10}, {"source": "medigraphic", "target": "Ciencias de la Salud", "value": 10}, {"source": "medigraphic", "target": "Ciencias de la Salud", "value": 10}, {"source": "medigraphic", "target": "Ciencias M\u00e9dicas", "value": 10}, {"source": "medigraphic", "target": "Ciencias M\u00e9dicas", "value": 10}, {"source": "medigraphic", "target": "Cirug\u00eda", "value": 10}, {"source": "medigraphic", "target": "Cirug\u00eda", "value": 10}, {"source": "medigraphic", "target": "Cirug\u00eda", "value": 10}, {"source": "medigraphic", "target": "Cirug\u00eda", "value": 10}, {"source": "medigraphic", "target": "Cirug\u00eda", "value": 10}, {"source": "medigraphic", "target": "Cirug\u00eda", "value": 10}, {"source": "medigraphic", "target": "Cirug\u00eda", "value": 10}, {"source": "medigraphic", "target": "Cirug\u00eda", "value": 10}, {"source": "medigraphic", "target": "Cirug\u00eda", "value": 10}, {"source": "medigraphic", "target": "Cirug\u00eda", "value": 10}, {"source": "medigraphic", "target": "Cirug\u00eda", "value": 10}, {"source": "medigraphic", "target": "Cirug\u00eda", "value": 10}, {"source": "medigraphic", "target": "Cirug\u00eda", "value": 10}, {"source": "medigraphic", "target": "Cirug\u00eda", "value": 10}, {"source": "medigraphic", "target": "Cirug\u00eda", "value": 10}, {"source": "medigraphic", "target": "Cirug\u00eda", "value": 10}, {"source": "medigraphic", "target": "Cirug\u00eda Bucal", "value": 10}, {"source": "medigraphic", "target": "Cirug\u00eda Endosc\u00f3pica", "value": 10}, {"source": "medigraphic", "target": "Cirug\u00eda Pl\u00e1stica", "value": 10}, {"source": "medigraphic", "target": "Dermatolog\u00eda", "value": 10}, {"source": "medigraphic", "target": "Dermatolog\u00eda", "value": 10}, {"source": "medigraphic", "target": "Dermatolog\u00eda", "value": 10}, {"source": "medigraphic", "target": "Dermatolog\u00eda", "value": 10}, {"source": "medigraphic", "target": "Dermatolog\u00eda", "value": 10}, {"source": "medigraphic", "target": "Direcci\u00f3n en Salud", "value": 10}, {"source": "medigraphic", "target": "Educaci\u00f3n M\u00e9dica", "value": 10}, {"source": "medigraphic", "target": "Educaci\u00f3n M\u00e9dica", "value": 10}, {"source": "medigraphic", "target": "Embriolog\u00eda", "value": 10}, {"source": "medigraphic", "target": "Endocrinolog\u00eda", "value": 10}, {"source": "medigraphic", "target": "Endocrinolog\u00eda", "value": 10}, {"source": "medigraphic", "target": "Endocrinolog\u00eda y Nutrici\u00f3n", "value": 10}, {"source": "medigraphic", "target": "Enfermer\u00eda", "value": 10}, {"source": "medigraphic", "target": "Enfermer\u00eda", "value": 10}, {"source": "medigraphic", "target": "Enfermer\u00eda", "value": 10}, {"source": "medigraphic", "target": "Enfermer\u00eda", "value": 10}, {"source": "medigraphic", "target": "Enfermer\u00eda", "value": 10}, {"source": "medigraphic", "target": "Enfermer\u00eda", "value": 10}, {"source": "medigraphic", "target": "Epidemiolog\u00eda", "value": 10}, {"source": "medigraphic", "target": "Epidemiolog\u00eda", "value": 10}, {"source": "medigraphic", "target": "Epidemiolog\u00eda", "value": 10}, {"source": "medigraphic", "target": "Epidemiolog\u00eda", "value": 10}, {"source": "medigraphic", "target": "Epidemiolog\u00eda", "value": 10}, {"source": "medigraphic", "target": "Epidemiolog\u00eda", "value": 10}, {"source": "medigraphic", "target": "Epidemiolog\u00eda", "value": 10}, {"source": "medigraphic", "target": "Estomatolog\u00eda", "value": 10}, {"source": "medigraphic", "target": "Estomatolog\u00eda", "value": 10}, {"source": "medigraphic", "target": "Estomatolog\u00eda", "value": 10}, {"source": "medigraphic", "target": "Estomatolog\u00eda", "value": 10}, {"source": "medigraphic", "target": "Estomatolog\u00eda", "value": 10}, {"source": "medigraphic", "target": "Estomatolog\u00eda", "value": 10}, {"source": "medigraphic", "target": "Estomatolog\u00eda", "value": 10}, {"source": "medigraphic", "target": "Estomatolog\u00eda", "value": 10}, {"source": "medigraphic", "target": "Estomatolog\u00eda", "value": 10}, {"source": "medigraphic", "target": "Estomatolog\u00eda", "value": 10}, {"source": "medigraphic", "target": "Farmacolog\u00eda", "value": 10}, {"source": "medigraphic", "target": "Fertilidad", "value": 10}, {"source": "medigraphic", "target": "Fertilidad", "value": 10}, {"source": "medigraphic", "target": "Filosof\u00eda de la Medicina", "value": 10}, {"source": "medigraphic", "target": "Foniatr\u00eda", "value": 10}, {"source": "medigraphic", "target": "Gastroenterolog\u00eda", "value": 10}, {"source": "medigraphic", "target": "Gastroenterolog\u00eda", "value": 10}, {"source": "medigraphic", "target": "Gastroenterolog\u00eda", "value": 10}, {"source": "medigraphic", "target": "Gen\u00e9tica M\u00e9dica", "value": 10}, {"source": "medigraphic", "target": "Gen\u00e9tica M\u00e9dica", "value": 10}, {"source": "medigraphic", "target": "Geriatr\u00eda", "value": 10}, {"source": "medigraphic", "target": "Gerontolog\u00eda", "value": 10}, {"source": "medigraphic", "target": "Ginecolog\u00eda", "value": 10}, {"source": "medigraphic", "target": "Ginecolog\u00eda", "value": 10}, {"source": "medigraphic", "target": "Ginecolog\u00eda", "value": 10}, {"source": "medigraphic", "target": "Ginecolog\u00eda", "value": 10}, {"source": "medigraphic", "target": "Ginecolog\u00eda", "value": 10}, {"source": "medigraphic", "target": "Hematolog\u00eda", "value": 10}, {"source": "medigraphic", "target": "Hematolog\u00eda", "value": 10}, {"source": "medigraphic", "target": "Hematolog\u00eda", "value": 10}, {"source": "medigraphic", "target": "Hepatolog\u00eda", "value": 10}, {"source": "medigraphic", "target": "Historia de la Medicina", "value": 10}, {"source": "medigraphic", "target": "Imagenolog\u00eda", "value": 10}, {"source": "medigraphic", "target": "Infectolog\u00eda", "value": 10}, {"source": "medigraphic", "target": "Infectolog\u00eda", "value": 10}, {"source": "medigraphic", "target": "Infectolog\u00eda", "value": 10}, {"source": "medigraphic", "target": "Inform\u00e1tica M\u00e9dica", "value": 10}, {"source": "medigraphic", "target": "Ingenier\u00eda Biom\u00e9dica", "value": 10}, {"source": "medigraphic", "target": "Inmunolog\u00eda", "value": 10}, {"source": "medigraphic", "target": "Inmunolog\u00eda", "value": 10}, {"source": "medigraphic", "target": "Investigaci\u00f3n B\u00e1sica", "value": 10}, {"source": "medigraphic", "target": "Investigaci\u00f3n B\u00e1sica", "value": 10}, {"source": "medigraphic", "target": "Investigaci\u00f3n B\u00e1sica", "value": 10}, {"source": "medigraphic", "target": "Investigaci\u00f3n Biom\u00e9dica", "value": 10}, {"source": "medigraphic", "target": "Investigaci\u00f3n Biom\u00e9dica", "value": 10}, {"source": "medigraphic", "target": "Investigaci\u00f3n Biom\u00e9dica", "value": 10}, {"source": "medigraphic", "target": "Investigaci\u00f3n Biom\u00e9dica", "value": 10}, {"source": "medigraphic", "target": "Investigaci\u00f3n Cl\u00ednica", "value": 10}, {"source": "medigraphic", "target": "Investigaci\u00f3n Cl\u00ednica", "value": 10}, {"source": "medigraphic", "target": "Investigaci\u00f3n Cl\u00ednica", "value": 10}, {"source": "medigraphic", "target": "Investigaci\u00f3n Medicoquir\u00fargica", "value": 10}, {"source": "medigraphic", "target": "Laboratorio Cl\u00ednico", "value": 10}, {"source": "medigraphic", "target": "Laboratorio Cl\u00ednico", "value": 10}, {"source": "medigraphic", "target": "Mastolog\u00eda", "value": 10}, {"source": "medigraphic", "target": "Medicina Cr\u00edtica", "value": 10}, {"source": "medigraphic", "target": "Medicina Cr\u00edtica", "value": 10}, {"source": "medigraphic", "target": "Medicina Cr\u00edtica", "value": 10}, {"source": "medigraphic", "target": "Medicina Cr\u00edtica", "value": 10}, {"source": "medigraphic", "target": "Medicina Cr\u00edtica", "value": 10}, {"source": "medigraphic", "target": "Medicina Cut\u00e1nea", "value": 10}, {"source": "medigraphic", "target": "Medicina Cut\u00e1nea", "value": 10}, {"source": "medigraphic", "target": "Medicina Cut\u00e1nea", "value": 10}, {"source": "medigraphic", "target": "Medicina de la Reproducci\u00f3n", "value": 10}, {"source": "medigraphic", "target": "Medicina de la Reproducci\u00f3n", "value": 10}, {"source": "medigraphic", "target": "Medicina de Laboratorio", "value": 10}, {"source": "medigraphic", "target": "Medicina de Laboratorio", "value": 10}, {"source": "medigraphic", "target": "Medicina de Urgencia", "value": 10}, {"source": "medigraphic", "target": "Medicina de Urgencia", "value": 10}, {"source": "medigraphic", "target": "Medicina de Urgencia", "value": 10}, {"source": "medigraphic", "target": "Medicina de Urgencia", "value": 10}, {"source": "medigraphic", "target": "Medicina de Urgencia", "value": 10}, {"source": "medigraphic", "target": "Medicina del Trabajo", "value": 10}, {"source": "medigraphic", "target": "Medicina del Trabajo", "value": 10}, {"source": "medigraphic", "target": "Medicina Familiar", "value": 10}, {"source": "medigraphic", "target": "Medicina Familiar", "value": 10}, {"source": "medigraphic", "target": "Medicina Familiar", "value": 10}, {"source": "medigraphic", "target": "Medicina F\u00edsica", "value": 10}, {"source": "medigraphic", "target": "Medicina F\u00edsica", "value": 10}, {"source": "medigraphic", "target": "Medicina F\u00edsica", "value": 10}, {"source": "medigraphic", "target": "Medicina F\u00edsica y Rehabilitaci\u00f3n", "value": 10}, {"source": "medigraphic", "target": "Medicina F\u00edsica y Rehabilitaci\u00f3n", "value": 10}, {"source": "medigraphic", "target": "Medicina F\u00edsica y Rehabilitaci\u00f3n", "value": 10}, {"source": "medigraphic", "target": "Medicina Forense", "value": 10}, {"source": "medigraphic", "target": "Medicina General", "value": 10}, {"source": "medigraphic", "target": "Medicina General", "value": 10}, {"source": "medigraphic", "target": "Medicina General", "value": 10}, {"source": "medigraphic", "target": "Medicina General", "value": 10}, {"source": "medigraphic", "target": "Medicina General", "value": 10}, {"source": "medigraphic", "target": "Medicina General", "value": 10}, {"source": "medigraphic", "target": "Medicina General", "value": 10}, {"source": "medigraphic", "target": "Medicina General", "value": 10}, {"source": "medigraphic", "target": "Medicina General", "value": 10}, {"source": "medigraphic", "target": "Medicina General", "value": 10}, {"source": "medigraphic", "target": "Medicina General", "value": 10}, {"source": "medigraphic", "target": "Medicina General", "value": 10}, {"source": "medigraphic", "target": "Medicina General", "value": 10}, {"source": "medigraphic", "target": "Medicina General", "value": 10}, {"source": "medigraphic", "target": "Medicina General", "value": 10}, {"source": "medigraphic", "target": "Medicina General", "value": 10}, {"source": "medigraphic", "target": "Medicina General", "value": 10}, {"source": "medigraphic", "target": "Medicina General", "value": 10}, {"source": "medigraphic", "target": "Medicina General", "value": 10}, {"source": "medigraphic", "target": "Medicina General", "value": 10}, {"source": "medigraphic", "target": "Medicina General", "value": 10}, {"source": "medigraphic", "target": "Medicina General", "value": 10}, {"source": "medigraphic", "target": "Medicina General", "value": 10}, {"source": "medigraphic", "target": "Medicina General", "value": 10}, {"source": "medigraphic", "target": "Medicina General", "value": 10}, {"source": "medigraphic", "target": "Medicina General", "value": 10}, {"source": "medigraphic", "target": "Medicina General", "value": 10}, {"source": "medigraphic", "target": "Medicina General", "value": 10}, {"source": "medigraphic", "target": "Medicina General", "value": 10}, {"source": "medigraphic", "target": "Medicina General", "value": 10}, {"source": "medigraphic", "target": "Medicina General", "value": 10}, {"source": "medigraphic", "target": "Medicina General", "value": 10}, {"source": "medigraphic", "target": "Medicina General", "value": 10}, {"source": "medigraphic", "target": "Medicina General", "value": 10}, {"source": "medigraphic", "target": "Medicina General", "value": 10}, {"source": "medigraphic", "target": "Medicina General", "value": 10}, {"source": "medigraphic", "target": "Medicina General", "value": 10}, {"source": "medigraphic", "target": "Medicina General", "value": 10}, {"source": "medigraphic", "target": "Medicina General", "value": 10}, {"source": "medigraphic", "target": "Medicina General", "value": 10}, {"source": "medigraphic", "target": "Medicina General", "value": 10}, {"source": "medigraphic", "target": "Medicina General", "value": 10}, {"source": "medigraphic", "target": "Medicina General", "value": 10}, {"source": "medigraphic", "target": "Medicina General", "value": 10}, {"source": "medigraphic", "target": "Medicina General", "value": 10}, {"source": "medigraphic", "target": "Medicina General", "value": 10}, {"source": "medigraphic", "target": "Medicina General", "value": 10}, {"source": "medigraphic", "target": "Medicina General", "value": 10}, {"source": "medigraphic", "target": "Medicina General", "value": 10}, {"source": "medigraphic", "target": "Medicina General", "value": 10}, {"source": "medigraphic", "target": "Medicina General", "value": 10}, {"source": "medigraphic", "target": "Medicina General", "value": 10}, {"source": "medigraphic", "target": "Medicina General", "value": 10}, {"source": "medigraphic", "target": "Medicina General", "value": 10}, {"source": "medigraphic", "target": "Medicina General", "value": 10}, {"source": "medigraphic", "target": "Medicina General", "value": 10}, {"source": "medigraphic", "target": "Medicina General", "value": 10}, {"source": "medigraphic", "target": "Medicina General", "value": 10}, {"source": "medigraphic", "target": "Medicina General", "value": 10}, {"source": "medigraphic", "target": "Medicina General", "value": 10}, {"source": "medigraphic", "target": "Medicina General", "value": 10}, {"source": "medigraphic", "target": "Medicina Intensiva", "value": 10}, {"source": "medigraphic", "target": "Medicina Interna", "value": 10}, {"source": "medigraphic", "target": "Medicina Legal", "value": 10}, {"source": "medigraphic", "target": "Medicina Militar", "value": 10}, {"source": "medigraphic", "target": "Medicina Transfusional", "value": 10}, {"source": "medigraphic", "target": "Medicina Tropical", "value": 10}, {"source": "medigraphic", "target": "Microbiolog\u00eda", "value": 10}, {"source": "medigraphic", "target": "Microbiolog\u00eda", "value": 10}, {"source": "medigraphic", "target": "Nefrolog\u00eda", "value": 10}, {"source": "medigraphic", "target": "Nefrolog\u00eda", "value": 10}, {"source": "medigraphic", "target": "Nefrolog\u00eda", "value": 10}, {"source": "medigraphic", "target": "Neonatolog\u00eda", "value": 10}, {"source": "medigraphic", "target": "Neumolog\u00eda", "value": 10}, {"source": "medigraphic", "target": "Neumolog\u00eda", "value": 10}, {"source": "medigraphic", "target": "Neurocirug\u00eda", "value": 10}, {"source": "medigraphic", "target": "Neurolog\u00eda", "value": 10}, {"source": "medigraphic", "target": "Neurolog\u00eda", "value": 10}, {"source": "medigraphic", "target": "Neurolog\u00eda", "value": 10}, {"source": "medigraphic", "target": "Neurolog\u00eda", "value": 10}, {"source": "medigraphic", "target": "Neurolog\u00eda", "value": 10}, {"source": "medigraphic", "target": "Neurolog\u00eda", "value": 10}, {"source": "medigraphic", "target": "Nutrici\u00f3n", "value": 10}, {"source": "medigraphic", "target": "Nutrici\u00f3n", "value": 10}, {"source": "medigraphic", "target": "Nutrici\u00f3n", "value": 10}, {"source": "medigraphic", "target": "Nutrici\u00f3n", "value": 10}, {"source": "medigraphic", "target": "Obstetricia", "value": 10}, {"source": "medigraphic", "target": "Obstetricia", "value": 10}, {"source": "medigraphic", "target": "Odontolog\u00eda", "value": 10}, {"source": "medigraphic", "target": "Odontolog\u00eda", "value": 10}, {"source": "medigraphic", "target": "Odontolog\u00eda", "value": 10}, {"source": "medigraphic", "target": "Odontolog\u00eda", "value": 10}, {"source": "medigraphic", "target": "Odontolog\u00eda", "value": 10}, {"source": "medigraphic", "target": "Odontolog\u00eda", "value": 10}, {"source": "medigraphic", "target": "Odontolog\u00eda", "value": 10}, {"source": "medigraphic", "target": "Odontolog\u00eda", "value": 10}, {"source": "medigraphic", "target": "Odontolog\u00eda", "value": 10}, {"source": "medigraphic", "target": "Odontolog\u00eda", "value": 10}, {"source": "medigraphic", "target": "Oftalmolog\u00eda", "value": 10}, {"source": "medigraphic", "target": "Oftalmolog\u00eda", "value": 10}, {"source": "medigraphic", "target": "Oftalmolog\u00eda", "value": 10}, {"source": "medigraphic", "target": "Ortodoncia", "value": 10}, {"source": "medigraphic", "target": "Ortopedia", "value": 10}, {"source": "medigraphic", "target": "Ortopedia", "value": 10}, {"source": "medigraphic", "target": "Ortopedia", "value": 10}, {"source": "medigraphic", "target": "Ortopedia", "value": 10}, {"source": "medigraphic", "target": "Ortopedia", "value": 10}, {"source": "medigraphic", "target": "Otoneurolog\u00eda", "value": 10}, {"source": "medigraphic", "target": "Otorrinolaringolog\u00eda", "value": 10}, {"source": "medigraphic", "target": "Ozonoterapia", "value": 10}, {"source": "medigraphic", "target": "Patologia Cl\u00ednica", "value": 10}, {"source": "medigraphic", "target": "Patologia Cl\u00ednica", "value": 10}, {"source": "medigraphic", "target": "Pediatr\u00eda", "value": 10}, {"source": "medigraphic", "target": "Pediatr\u00eda", "value": 10}, {"source": "medigraphic", "target": "Pediatr\u00eda", "value": 10}, {"source": "medigraphic", "target": "Pediatr\u00eda", "value": 10}, {"source": "medigraphic", "target": "Pediatr\u00eda", "value": 10}, {"source": "medigraphic", "target": "Pediatr\u00eda", "value": 10}, {"source": "medigraphic", "target": "Pediatr\u00eda", "value": 10}, {"source": "medigraphic", "target": "Pediatr\u00eda", "value": 10}, {"source": "medigraphic", "target": "Pediatr\u00eda", "value": 10}, {"source": "medigraphic", "target": "Pediatr\u00eda", "value": 10}, {"source": "medigraphic", "target": "Pediatr\u00eda", "value": 10}, {"source": "medigraphic", "target": "Pediatr\u00eda", "value": 10}, {"source": "medigraphic", "target": "Perinatolog\u00eda", "value": 10}, {"source": "medigraphic", "target": "Perinatolog\u00eda", "value": 10}, {"source": "medigraphic", "target": "Perinatolog\u00eda", "value": 10}, {"source": "medigraphic", "target": "Periodontolog\u00eda", "value": 10}, {"source": "medigraphic", "target": "Proctolog\u00eda", "value": 10}, {"source": "medigraphic", "target": "Psicolog\u00eda", "value": 10}, {"source": "medigraphic", "target": "Psicolog\u00eda", "value": 10}, {"source": "medigraphic", "target": "Psiquiatr\u00eda", "value": 10}, {"source": "medigraphic", "target": "Psiquiatr\u00eda", "value": 10}, {"source": "medigraphic", "target": "Psiquiatr\u00eda", "value": 10}, {"source": "medigraphic", "target": "Psiquiatr\u00eda", "value": 10}, {"source": "medigraphic", "target": "Psiquiatr\u00eda", "value": 10}, {"source": "medigraphic", "target": "Puericultura", "value": 10}, {"source": "medigraphic", "target": "Puericultura", "value": 10}, {"source": "medigraphic", "target": "Puericultura", "value": 10}, {"source": "medigraphic", "target": "Puericultura", "value": 10}, {"source": "medigraphic", "target": "Puericultura", "value": 10}, {"source": "medigraphic", "target": "Puericultura", "value": 10}, {"source": "medigraphic", "target": "Puericultura", "value": 10}, {"source": "medigraphic", "target": "Puericultura", "value": 10}, {"source": "medigraphic", "target": "Radiolog\u00eda", "value": 10}, {"source": "medigraphic", "target": "Rehabilitaci\u00f3n", "value": 10}, {"source": "medigraphic", "target": "Rehabilitaci\u00f3n", "value": 10}, {"source": "medigraphic", "target": "Rehabilitaci\u00f3n", "value": 10}, {"source": "medigraphic", "target": "Reumatolog\u00eda", "value": 10}, {"source": "medigraphic", "target": "Salud Mental", "value": 10}, {"source": "medigraphic", "target": "Salud Mental", "value": 10}, {"source": "medigraphic", "target": "Salud P\u00fablica", "value": 10}, {"source": "medigraphic", "target": "Salud P\u00fablica", "value": 10}, {"source": "medigraphic", "target": "Salud P\u00fablica", "value": 10}, {"source": "medigraphic", "target": "Salud P\u00fablica", "value": 10}, {"source": "medigraphic", "target": "Salud P\u00fablica", "value": 10}, {"source": "medigraphic", "target": "Sanidad Militar", "value": 10}, {"source": "medigraphic", "target": "Sanidad Militar", "value": 10}, {"source": "medigraphic", "target": "Sexolog\u00eda", "value": 10}, {"source": "medigraphic", "target": "Simulaci\u00f3n Cl\u00ednica", "value": 10}, {"source": "medigraphic", "target": "Tecnolog\u00edas Biom\u00e9dicas", "value": 10}, {"source": "medigraphic", "target": "Terapia Intensiva", "value": 10}, {"source": "medigraphic", "target": "Terapia Intensiva", "value": 10}, {"source": "medigraphic", "target": "Terapia Intensiva", "value": 10}, {"source": "medigraphic", "target": "Toxicolog\u00eda", "value": 10}, {"source": "medigraphic", "target": "Trasplantes", "value": 10}, {"source": "medigraphic", "target": "Traumatolog\u00eda", "value": 10}, {"source": "medigraphic", "target": "Traumatolog\u00eda", "value": 10}, {"source": "medigraphic", "target": "Urolog\u00eda", "value": 10}, {"source": "medigraphic", "target": "Urolog\u00eda", "value": 10}, {"source": "medigraphic", "target": "Urolog\u00eda", "value": 10}, {"source": "medigraphic", "target": "Veterinaria", "value": 10}, {"source": "medigraphic", "target": "Veterinaria", "value": 10}]
}